<?xml version="1.0" encoding="UTF-8"?>
<!DOCTYPE X3D PUBLIC "ISO//Web3D//DTD X3D 3.0//EN" "http://www.web3d.org/specifications/x3d-3.0.dtd">
<X3D version="3.0" profile="Immersive" xmlns:xsd="http://www.w3.org/2001/XMLSchema-instance" xsd:noNamespaceSchemaLocation="http://www.web3d.org/specifications/x3d-3.0.xsd">
	<head>
		<meta name='copyright' content='Copyright (c) AnyLogic North America 2013'/>
	</head>
	<Scene>
		<NavigationInfo headlight="false"
		                visibilityLimit="0.0"
		                type='"EXAMINE", "ANY"'
		                avatarSize="0.25, 1.75, 0.75"
		                />
		<Background DEF="WO_World"
		            groundColor="0.051 0.051 0.051"
		            skyColor="0.051 0.051 0.051"
		            />
		<Transform 
		           translation="33.9 -10.200001 0"
		           scale="0.6 0.6 0.6"
		           rotation="0.000000 0.707107 0.707107 3.141593"
		           >
			<Transform DEF="group_0_018_TRANSFORM"
			           translation="0.000000 0.000000 0.000000"
			           scale="1.000000 1.000000 1.000000"
			           rotation="1.000000 0.000000 0.000000 0.000000"
			           >
				<Transform DEF="group_0_018_ifs_TRANSFORM"
				           translation="0.000000 0.000000 0.000000"
				           scale="1.000000 1.000000 1.000000"
				           rotation="1.000000 0.000000 0.000000 0.000000"
				           >
					<Group DEF="group_ME_ID121">
						<Shape>
							<Appearance>
								<Material DEF="MA___auto_"
								          diffuseColor="0.267 0.267 0.267"
								          specularColor="0.401 0.401 0.401"
								          emissiveColor="0.000 0.000 0.000"
								          ambientIntensity="0.333"
								          shininess="0.098"
								          transparency="0.0"
								          />
							</Appearance>
							<IndexedFaceSet solid="true"
							                coordIndex="0 1 2 -1 1 0 3 -1 4 5 6 -1 7 6 5 -1 "
							                >
								<Coordinate DEF="coords_ME_ID121"
								            point="0.000000 16.943130 22.506260 0.000000 11.060945 10.230000 0.000000 11.060945 22.506260 0.000000 16.943130 10.230000 0.000000 16.943130 10.230000 0.000000 16.943130 22.506260 0.000000 11.060945 10.230000 0.000000 11.060945 22.506260 "
								            />
							</IndexedFaceSet>
						</Shape>
					</Group>
				</Transform>
			</Transform>
			<Transform DEF="group_0_017_TRANSFORM"
			           translation="0.000000 0.000000 0.000000"
			           scale="1.000000 1.000000 1.000000"
			           rotation="1.000000 0.000000 0.000000 0.000000"
			           >
				<Transform DEF="group_0_017_ifs_TRANSFORM"
				           translation="0.000000 0.000000 0.000000"
				           scale="1.000000 1.000000 1.000000"
				           rotation="1.000000 0.000000 0.000000 0.000000"
				           >
					<Group DEF="group_ME_ID115">
						<Shape>
							<Appearance>
								<Material DEF="MA___auto_8"
								          diffuseColor="0.561 0.600 0.588"
								          specularColor="0.401 0.401 0.401"
								          emissiveColor="0.000 0.000 0.000"
								          ambientIntensity="0.333"
								          shininess="0.098"
								          transparency="0.0"
								          />
							</Appearance>
							<IndexedFaceSet solid="true"
							                coordIndex="0 1 2 -1 1 0 3 -1 1 3 4 -1 4 3 5 -1 4 5 6 -1 6 5 7 -1 6 7 8 -1 8 7 9 -1 8 9 10 -1 10 9 11 -1 10 11 12 -1 12 11 13 -1 12 13 14 -1 14 13 15 -1 14 15 16 -1 16 15 17 -1 16 17 18 -1 18 17 19 -1 18 19 20 -1 20 19 21 -1 20 21 22 -1 22 21 23 -1 "
							                >
								<Coordinate DEF="coords_ME_ID115"
								            point="83.408089 6.461342 31.713131 83.408089 8.499288 31.713131 83.273933 7.480315 31.713131 83.801392 5.511811 31.713131 83.801392 9.448818 31.713131 84.427055 4.696430 31.713131 84.427055 10.264200 31.713131 85.242439 4.070766 31.713131 85.242439 10.889864 31.713131 86.191971 3.677457 31.713131 86.191971 11.283173 31.713131 87.210945 3.543307 31.713131 87.210945 11.417322 31.713131 88.229919 3.677457 31.713131 88.229919 11.283173 31.713131 89.179451 4.070766 31.713131 89.179451 10.889864 31.713131 89.994835 4.696430 31.713131 89.994835 10.264200 31.713131 90.620491 5.511811 31.713131 90.620491 9.448818 31.713131 91.013802 6.461342 31.713131 91.013802 8.499288 31.713131 91.147957 7.480315 31.713131 "
								            />
							</IndexedFaceSet>
						</Shape>
					</Group>
				</Transform>
			</Transform>
			<Transform DEF="group_0_016_TRANSFORM"
			           translation="0.000000 0.000000 0.000000"
			           scale="1.000000 1.000000 1.000000"
			           rotation="1.000000 0.000000 0.000000 0.000000"
			           >
				<Transform DEF="group_0_016_ifs_TRANSFORM"
				           translation="0.000000 0.000000 0.000000"
				           scale="1.000000 1.000000 1.000000"
				           rotation="1.000000 0.000000 0.000000 0.000000"
				           >
					<Group DEF="group_ME_ID109">
						<Shape>
							<Appearance>
								<Material USE="MA___auto_8" />
							</Appearance>
							<IndexedFaceSet solid="true"
							                coordIndex="0 1 2 -1 1 0 3 -1 1 3 4 -1 4 3 5 -1 4 5 6 -1 6 5 7 -1 6 7 8 -1 8 7 9 -1 8 9 10 -1 10 9 11 -1 10 11 12 -1 12 11 13 -1 12 13 14 -1 14 13 15 -1 14 15 16 -1 16 15 17 -1 16 17 18 -1 18 17 19 -1 18 19 20 -1 20 19 21 -1 20 21 22 -1 22 21 23 -1 "
							                >
								<Coordinate DEF="coords_ME_ID109"
								            point="14.866828 8.499288 1.023130 14.866828 6.461342 1.023130 14.732677 7.480315 1.023130 15.260136 9.448818 1.023130 15.260136 5.511811 1.023130 15.885800 10.264200 1.023130 15.885800 4.696430 1.023130 16.701181 10.889864 1.023130 16.701181 4.070766 1.023130 17.650713 11.283173 1.023130 17.650713 3.677457 1.023130 18.669683 11.417322 1.023130 18.669683 3.543307 1.023130 19.688658 11.283173 1.023130 19.688658 3.677457 1.023130 20.638189 10.889864 1.023130 20.638189 4.070766 1.023130 21.453569 10.264200 1.023130 21.453569 4.696430 1.023130 22.079233 9.448818 1.023130 22.079233 5.511811 1.023130 22.472542 8.499288 1.023130 22.472542 6.461342 1.023130 22.606691 7.480315 1.023130 "
								            />
							</IndexedFaceSet>
						</Shape>
					</Group>
				</Transform>
			</Transform>
			<Transform DEF="group_0_015_TRANSFORM"
			           translation="0.000000 0.000000 0.000000"
			           scale="1.000000 1.000000 1.000000"
			           rotation="1.000000 0.000000 0.000000 0.000000"
			           >
				<Transform DEF="group_0_015_ifs_TRANSFORM"
				           translation="0.000000 0.000000 0.000000"
				           scale="1.000000 1.000000 1.000000"
				           rotation="1.000000 0.000000 0.000000 0.000000"
				           >
					<Group DEF="group_ME_ID103">
						<Shape>
							<Appearance>
								<Material USE="MA___auto_" />
							</Appearance>
							<IndexedFaceSet solid="true"
							                coordIndex="0 1 2 -1 1 0 3 -1 4 5 6 -1 7 6 5 -1 "
							                >
								<Coordinate DEF="coords_ME_ID103"
								            point="21.166771 34.078445 1.023130 34.781868 26.661890 1.023130 18.360472 26.661890 1.023130 34.781868 34.078445 1.023130 34.781868 34.078445 1.023130 21.166771 34.078445 1.023130 34.781868 26.661890 1.023130 18.360472 26.661890 1.023130 "
								            />
							</IndexedFaceSet>
						</Shape>
					</Group>
				</Transform>
			</Transform>
			<Transform DEF="group_0_014_TRANSFORM"
			           translation="0.000000 0.000000 0.000000"
			           scale="1.000000 1.000000 1.000000"
			           rotation="1.000000 0.000000 0.000000 0.000000"
			           >
				<Transform DEF="group_0_014_ifs_TRANSFORM"
				           translation="0.000000 0.000000 0.000000"
				           scale="1.000000 1.000000 1.000000"
				           rotation="1.000000 0.000000 0.000000 0.000000"
				           >
					<Group DEF="group_ME_ID97">
						<Shape>
							<Appearance>
								<Material USE="MA___auto_8" />
							</Appearance>
							<IndexedFaceSet solid="true"
							                coordIndex="0 1 2 -1 1 0 3 -1 1 3 4 -1 4 3 5 -1 4 5 6 -1 6 5 7 -1 6 7 8 -1 8 7 9 -1 8 9 10 -1 10 9 11 -1 10 11 12 -1 12 11 13 -1 12 13 14 -1 14 13 15 -1 14 15 16 -1 16 15 17 -1 16 17 18 -1 18 17 19 -1 18 19 20 -1 20 19 21 -1 20 21 22 -1 22 21 23 -1 "
							                >
								<Coordinate DEF="coords_ME_ID97"
								            point="83.408089 8.499288 1.023130 83.408089 6.461342 1.023130 83.273933 7.480315 1.023130 83.801392 9.448818 1.023130 83.801392 5.511811 1.023130 84.427055 10.264200 1.023130 84.427055 4.696430 1.023130 85.242439 10.889864 1.023130 85.242439 4.070766 1.023130 86.191971 11.283173 1.023130 86.191971 3.677457 1.023130 87.210945 11.417322 1.023130 87.210945 3.543307 1.023130 88.229919 11.283173 1.023130 88.229919 3.677457 1.023130 89.179451 10.889864 1.023130 89.179451 4.070766 1.023130 89.994835 10.264200 1.023130 89.994835 4.696430 1.023130 90.620491 9.448818 1.023130 90.620491 5.511811 1.023130 91.013802 8.499288 1.023130 91.013802 6.461342 1.023130 91.147957 7.480315 1.023130 "
								            />
							</IndexedFaceSet>
						</Shape>
					</Group>
				</Transform>
			</Transform>
			<Transform DEF="group_0_013_TRANSFORM"
			           translation="0.000000 0.000000 0.000000"
			           scale="1.000000 1.000000 1.000000"
			           rotation="1.000000 0.000000 0.000000 0.000000"
			           >
				<Transform DEF="group_0_013_ifs_TRANSFORM"
				           translation="0.000000 0.000000 0.000000"
				           scale="1.000000 1.000000 1.000000"
				           rotation="1.000000 0.000000 0.000000 0.000000"
				           >
					<Group DEF="group_ME_ID91">
						<Shape>
							<Appearance>
								<Material USE="MA___auto_" />
							</Appearance>
							<IndexedFaceSet solid="true"
							                coordIndex="0 1 2 -1 1 0 3 -1 4 5 6 -1 7 6 5 -1 "
							                >
								<Coordinate DEF="coords_ME_ID91"
								            point="20.098169 34.144707 30.690001 17.241201 26.595629 2.046260 17.241201 26.595629 30.690001 20.098169 34.144707 2.046260 20.098169 34.144707 2.046260 20.098169 34.144707 30.690001 17.241201 26.595629 2.046260 17.241201 26.595629 30.690001 "
								            />
							</IndexedFaceSet>
						</Shape>
					</Group>
				</Transform>
			</Transform>
			<Transform DEF="group_0_012_TRANSFORM"
			           translation="0.000000 0.000000 0.000000"
			           scale="1.000000 1.000000 1.000000"
			           rotation="1.000000 0.000000 0.000000 0.000000"
			           >
				<Transform DEF="group_0_012_ifs_TRANSFORM"
				           translation="0.000000 0.000000 0.000000"
				           scale="1.000000 1.000000 1.000000"
				           rotation="1.000000 0.000000 0.000000 0.000000"
				           >
					<Group DEF="group_ME_ID85">
						<Shape>
							<Appearance>
								<Material USE="MA___auto_" />
							</Appearance>
							<IndexedFaceSet solid="true"
							                coordIndex="0 1 2 -1 1 0 3 -1 4 5 6 -1 7 6 5 -1 "
							                >
								<Coordinate DEF="coords_ME_ID85"
								            point="0.000000 14.641574 7.672500 0.000000 12.084074 2.046260 0.000000 12.084074 7.672500 0.000000 14.641574 2.046260 0.000000 14.641574 2.046260 0.000000 14.641574 7.672500 0.000000 12.084074 2.046260 0.000000 12.084074 7.672500 "
								            />
							</IndexedFaceSet>
						</Shape>
					</Group>
				</Transform>
			</Transform>
			<Transform DEF="group_0_011_TRANSFORM"
			           translation="0.000000 0.000000 0.000000"
			           scale="1.000000 1.000000 1.000000"
			           rotation="1.000000 0.000000 0.000000 0.000000"
			           >
				<Transform DEF="group_0_011_ifs_TRANSFORM"
				           translation="0.000000 0.000000 0.000000"
				           scale="1.000000 1.000000 1.000000"
				           rotation="1.000000 0.000000 0.000000 0.000000"
				           >
					<Group DEF="group_ME_ID79">
						<Shape>
							<Appearance>
								<Material USE="MA___auto_" />
							</Appearance>
							<IndexedFaceSet solid="true"
							                coordIndex="0 1 2 -1 1 0 3 -1 4 5 6 -1 7 6 5 -1 8 9 10 -1 9 8 11 -1 12 13 14 -1 15 14 13 -1 16 17 18 -1 17 16 19 -1 20 21 22 -1 23 22 21 -1 24 25 26 -1 25 24 27 -1 28 29 30 -1 31 30 29 -1 32 33 34 -1 33 32 35 -1 36 37 38 -1 39 38 37 -1 "
							                >
								<Coordinate DEF="coords_ME_ID79"
								            point="97.778740 33.332047 30.178759 105.381081 22.756456 30.178759 97.375336 33.017639 30.178759 105.784485 23.070866 30.178759 105.784485 23.070866 30.178759 97.778740 33.332047 30.178759 105.381081 22.756456 30.178759 97.375336 33.017639 30.178759 105.381081 22.756456 30.178759 105.784485 23.070866 2.557500 105.381081 22.756456 2.557500 105.784485 23.070866 30.178759 105.784485 23.070866 30.178759 105.381081 22.756456 30.178759 105.784485 23.070866 2.557500 105.381081 22.756456 2.557500 105.381081 22.756456 2.557500 97.375336 33.017639 30.178759 105.381081 22.756456 30.178759 97.375336 33.017639 2.557500 97.375336 33.017639 2.557500 105.381081 22.756456 2.557500 97.375336 33.017639 30.178759 105.381081 22.756456 30.178759 97.778740 33.332047 30.178759 97.375336 33.017639 2.557500 97.778740 33.332047 2.557500 97.375336 33.017639 30.178759 97.375336 33.017639 30.178759 97.778740 33.332047 30.178759 97.375336 33.017639 2.557500 97.778740 33.332047 2.557500 105.381081 22.756456 2.557500 97.778740 33.332047 2.557500 97.375336 33.017639 2.557500 105.784485 23.070866 2.557500 105.784485 23.070866 2.557500 105.381081 22.756456 2.557500 97.778740 33.332047 2.557500 97.375336 33.017639 2.557500 "
								            />
							</IndexedFaceSet>
						</Shape>
					</Group>
				</Transform>
			</Transform>
			<Transform DEF="group_0_010_TRANSFORM"
			           translation="0.000000 0.000000 0.000000"
			           scale="1.000000 1.000000 1.000000"
			           rotation="1.000000 0.000000 0.000000 0.000000"
			           >
				<Transform DEF="group_0_010_ifs_TRANSFORM"
				           translation="0.000000 0.000000 0.000000"
				           scale="1.000000 1.000000 1.000000"
				           rotation="1.000000 0.000000 0.000000 0.000000"
				           >
					<Group DEF="group_ME_ID73">
						<Shape>
							<Appearance>
								<Material USE="MA___auto_" />
							</Appearance>
							<IndexedFaceSet solid="true"
							                coordIndex="0 1 2 -1 1 0 3 -1 4 5 6 -1 7 6 5 -1 "
							                >
								<Coordinate DEF="coords_ME_ID73"
								            point="0.000000 22.058128 22.506260 0.000000 18.477499 10.230000 0.000000 18.477499 22.506260 0.000000 22.058128 10.230000 0.000000 22.058128 10.230000 0.000000 22.058128 22.506260 0.000000 18.477499 10.230000 0.000000 18.477499 22.506260 "
								            />
							</IndexedFaceSet>
						</Shape>
					</Group>
				</Transform>
			</Transform>
			<Transform DEF="group_0_009_TRANSFORM"
			           translation="0.000000 0.000000 0.000000"
			           scale="1.000000 1.000000 1.000000"
			           rotation="1.000000 0.000000 0.000000 0.000000"
			           >
				<Transform DEF="group_0_009_ifs_TRANSFORM"
				           translation="0.000000 0.000000 0.000000"
				           scale="1.000000 1.000000 1.000000"
				           rotation="1.000000 0.000000 0.000000 0.000000"
				           >
					<Group DEF="group_ME_ID67">
						<Shape>
							<Appearance>
								<Material DEF="MA_material"
								          diffuseColor="0.318 0.318 0.318"
								          specularColor="0.401 0.401 0.401"
								          emissiveColor="0.000 0.000 0.000"
								          ambientIntensity="0.333"
								          shininess="0.098"
								          transparency="0.0"
								          />
							</Appearance>
							<IndexedFaceSet solid="true"
							                creaseAngle="0.5236"
							                coordIndex="0 1 2 -1 1 0 3 -1 4 5 6 -1 5 4 7 -1 5 7 8 -1 8 7 9 -1 8 9 10 -1 10 9 11 -1 10 11 12 -1 12 11 13 -1 13 11 14 -1 14 11 15 -1 14 15 16 -1 16 15 17 -1 17 15 18 -1 18 15 19 -1 18 19 20 -1 20 19 21 -1 20 21 22 -1 22 21 23 -1 23 21 24 -1 23 24 25 -1 25 24 26 -1 26 24 27 -1 27 24 28 -1 27 28 29 -1 12 30 10 -1 30 12 31 -1 30 31 32 -1 30 32 33 -1 33 32 34 -1 33 34 35 -1 33 35 36 -1 33 36 37 -1 37 36 38 -1 37 38 39 -1 37 39 40 -1 40 39 41 -1 40 41 42 -1 42 41 43 -1 42 43 44 -1 42 44 45 -1 42 45 46 -1 46 45 29 -1 46 29 28 -1 46 28 47 -1 46 47 48 -1 48 47 49 -1 48 49 50 -1 50 49 51 -1 52 2 1 -1 2 52 53 -1 54 55 56 -1 55 54 57 -1 55 57 58 -1 58 57 59 -1 59 57 60 -1 59 60 61 -1 59 61 62 -1 59 62 63 -1 59 63 64 -1 59 64 65 -1 59 65 66 -1 59 66 67 -1 59 67 68 -1 59 68 69 -1 69 68 70 -1 3 0 71 -1 3 71 72 -1 73 74 75 -1 74 73 76 -1 76 77 74 -1 77 76 78 -1 78 79 77 -1 79 78 80 -1 80 81 79 -1 81 80 82 -1 81 83 84 -1 83 81 82 -1 84 85 86 -1 85 84 87 -1 87 84 83 -1 88 85 89 -1 85 88 86 -1 90 89 91 -1 89 90 88 -1 92 91 93 -1 91 92 90 -1 94 93 95 -1 93 94 92 -1 94 96 97 -1 96 94 95 -1 97 98 99 -1 98 97 96 -1 99 100 101 -1 100 99 98 -1 101 102 103 -1 102 101 100 -1 103 53 52 -1 53 103 102 -1 104 72 71 -1 72 104 105 -1 106 105 104 -1 105 106 107 -1 108 107 106 -1 107 108 109 -1 109 108 110 -1 111 109 110 -1 109 111 112 -1 111 113 112 -1 113 111 114 -1 114 75 113 -1 75 114 73 -1 "
							                >
								<Coordinate DEF="coords_ME_ID67"
								            point="12.191542 3.740157 4.603760 13.380303 2.190933 1.023130 13.380303 2.190933 4.603760 12.191542 3.740157 1.023130 11.444256 9.416363 1.023130 11.444256 5.544267 1.023130 11.189370 7.480315 1.023130 12.191542 11.220471 1.023130 12.191542 3.740157 1.023130 13.380303 12.769696 1.023130 13.380303 2.190933 1.023130 14.929527 13.958457 1.023130 14.732677 7.480315 1.023130 14.866828 8.499288 1.023130 15.260136 9.448818 1.023130 16.733637 14.705744 1.023130 15.885800 10.264200 1.023130 16.701181 10.889864 1.023130 17.650713 11.283173 1.023130 18.669683 14.960629 1.023130 18.669683 11.417322 1.023130 20.605732 14.705744 1.023130 19.688658 11.283173 1.023130 20.638189 10.889864 1.023130 22.409842 13.958457 1.023130 21.453569 10.264200 1.023130 22.079233 9.448818 1.023130 22.472542 8.499288 1.023130 23.959064 12.769696 1.023130 22.606691 7.480315 1.023130 14.929527 1.002172 1.023130 14.866828 6.461342 1.023130 15.260136 5.511811 1.023130 16.733637 0.254886 1.023130 15.885800 4.696430 1.023130 16.701181 4.070766 1.023130 17.650713 3.677457 1.023130 18.669683 0.000000 1.023130 18.669683 3.543307 1.023130 19.688658 3.677457 1.023130 20.605732 0.254886 1.023130 20.638189 4.070766 1.023130 22.409842 1.002172 1.023130 21.453569 4.696430 1.023130 22.079233 5.511811 1.023130 22.472542 6.461342 1.023130 23.959064 2.190933 1.023130 25.147827 11.220471 1.023130 25.147827 3.740157 1.023130 25.895115 9.416363 1.023130 25.895115 5.544267 1.023130 26.150000 7.480315 1.023130 14.929527 1.002172 1.023130 14.929527 1.002172 4.603760 11.444256 5.544267 4.603760 11.444256 9.416363 4.603760 11.189370 7.480315 4.603760 12.191542 3.740157 4.603760 11.489907 9.526575 4.603760 25.849461 9.526575 4.603760 13.380303 2.190933 4.603760 14.929527 1.002172 4.603760 16.733637 0.254886 4.603760 18.669683 0.000000 4.603760 20.605732 0.254886 4.603760 22.409842 1.002172 4.603760 23.959064 2.190933 4.603760 25.147827 3.740157 4.603760 25.895115 5.544267 4.603760 25.895115 9.416363 4.603760 26.150000 7.480315 4.603760 11.444256 5.544267 4.603760 11.444256 5.544267 1.023130 16.733637 14.705744 4.603760 18.669683 14.960629 1.023130 16.733637 14.705744 1.023130 18.669683 14.960629 4.603760 20.605732 14.705744 1.023130 20.605732 14.705744 4.603760 22.409842 13.958457 1.023130 22.409842 13.958457 4.603760 23.959064 12.769696 1.023130 23.959064 12.769696 4.603760 25.147827 11.220471 4.603760 25.147827 11.220471 1.023130 25.895115 9.416363 4.603760 25.895115 9.416363 1.023130 25.849461 9.526575 4.603760 26.150000 7.480315 1.023130 26.150000 7.480315 4.603760 25.895115 5.544267 1.023130 25.895115 5.544267 4.603760 25.147827 3.740157 1.023130 25.147827 3.740157 4.603760 23.959064 2.190933 1.023130 23.959064 2.190933 4.603760 22.409842 1.002172 4.603760 22.409842 1.002172 1.023130 20.605732 0.254886 4.603760 20.605732 0.254886 1.023130 18.669683 0.000000 4.603760 18.669683 0.000000 1.023130 16.733637 0.254886 4.603760 16.733637 0.254886 1.023130 11.189370 7.480315 4.603760 11.189370 7.480315 1.023130 11.444256 9.416363 4.603760 11.444256 9.416363 1.023130 11.489907 9.526575 4.603760 12.191542 11.220471 1.023130 12.191542 11.220471 4.603760 13.380303 12.769696 4.603760 13.380303 12.769696 1.023130 14.929527 13.958457 1.023130 14.929527 13.958457 4.603760 "
								            />
							</IndexedFaceSet>
						</Shape>
					</Group>
				</Transform>
			</Transform>
			<Transform DEF="group_0_008_TRANSFORM"
			           translation="0.000000 0.000000 0.000000"
			           scale="1.000000 1.000000 1.000000"
			           rotation="1.000000 0.000000 0.000000 0.000000"
			           >
				<Transform DEF="group_0_008_ifs_TRANSFORM"
				           translation="0.000000 0.000000 0.000000"
				           scale="1.000000 1.000000 1.000000"
				           rotation="1.000000 0.000000 0.000000 0.000000"
				           >
					<Group DEF="group_ME_ID61">
						<Shape>
							<Appearance>
								<Material USE="MA___auto_" />
							</Appearance>
							<IndexedFaceSet solid="true"
							                coordIndex="0 1 2 -1 3 4 5 -1 4 3 6 -1 6 3 7 -1 6 7 8 -1 8 7 1 -1 8 1 9 -1 9 1 10 -1 10 1 11 -1 11 1 12 -1 12 1 13 -1 1 0 13 -1 8 9 14 -1 8 14 15 -1 8 15 16 -1 17 18 19 -1 18 17 20 -1 18 20 21 -1 21 20 22 -1 21 22 23 -1 21 23 24 -1 24 23 25 -1 24 25 26 -1 24 26 27 -1 24 27 28 -1 28 27 29 -1 28 29 30 -1 28 30 31 -1 28 31 5 -1 28 5 4 -1 32 33 34 -1 33 35 34 -1 35 36 34 -1 36 37 34 -1 37 38 34 -1 34 38 39 -1 38 40 39 -1 40 41 39 -1 41 42 39 -1 39 42 43 -1 42 44 43 -1 44 45 43 -1 43 45 46 -1 45 47 46 -1 48 46 47 -1 49 50 51 -1 50 52 51 -1 52 53 51 -1 54 55 56 -1 56 55 57 -1 57 55 58 -1 58 55 59 -1 59 55 53 -1 53 55 51 -1 55 60 51 -1 51 60 61 -1 60 62 61 -1 61 62 32 -1 33 32 62 -1 63 55 54 -1 64 65 66 -1 65 64 67 -1 68 69 70 -1 69 68 71 -1 69 71 65 -1 69 65 67 -1 69 67 72 -1 69 72 73 -1 69 73 74 -1 74 73 75 -1 69 74 76 -1 69 76 77 -1 77 76 78 -1 76 74 79 -1 79 80 76 -1 80 79 81 -1 82 83 84 -1 85 84 83 -1 83 86 85 -1 87 85 88 -1 88 85 89 -1 85 86 89 -1 90 91 86 -1 86 91 89 -1 91 92 89 -1 92 93 89 -1 93 94 89 -1 94 95 89 -1 95 96 89 -1 97 89 96 -1 93 98 94 -1 99 94 98 -1 100 101 102 -1 101 100 103 -1 104 105 106 -1 107 106 105 -1 108 109 110 -1 109 108 111 -1 112 113 114 -1 115 114 113 -1 116 117 118 -1 117 116 119 -1 120 121 122 -1 123 122 121 -1 124 125 126 -1 125 124 127 -1 125 127 128 -1 128 127 129 -1 130 131 132 -1 132 131 133 -1 131 134 133 -1 135 133 134 -1 136 137 138 -1 137 136 139 -1 140 141 142 -1 143 142 141 -1 144 145 146 -1 145 144 147 -1 147 144 148 -1 147 148 149 -1 147 149 150 -1 150 149 151 -1 150 151 152 -1 150 152 153 -1 150 153 154 -1 148 144 155 -1 155 144 156 -1 156 144 157 -1 158 159 160 -1 159 158 161 -1 161 158 162 -1 161 162 163 -1 163 162 164 -1 164 162 165 -1 164 165 166 -1 166 165 167 -1 167 165 168 -1 167 168 169 -1 169 168 170 -1 170 168 171 -1 171 168 172 -1 172 168 173 -1 173 168 174 -1 173 174 175 -1 175 174 146 -1 175 146 145 -1 176 177 178 -1 177 179 178 -1 178 179 180 -1 179 181 180 -1 180 181 182 -1 182 181 183 -1 183 181 184 -1 184 181 185 -1 185 181 186 -1 181 187 186 -1 186 187 188 -1 188 187 189 -1 187 190 189 -1 189 190 191 -1 191 190 192 -1 190 193 192 -1 192 193 194 -1 195 194 193 -1 196 197 198 -1 198 197 199 -1 199 197 200 -1 201 202 203 -1 202 204 203 -1 204 205 203 -1 205 206 203 -1 203 206 207 -1 206 200 207 -1 200 197 207 -1 207 197 176 -1 177 176 197 -1 208 209 210 -1 209 208 211 -1 212 213 214 -1 215 214 213 -1 216 217 218 -1 217 216 219 -1 220 221 222 -1 223 222 221 -1 224 225 226 -1 225 224 227 -1 228 229 230 -1 231 230 229 -1 232 233 234 -1 233 232 235 -1 236 237 238 -1 239 238 237 -1 240 241 242 -1 241 240 243 -1 244 245 246 -1 247 246 245 -1 "
							                >
								<Coordinate DEF="coords_ME_ID61"
								            point="80.031166 9.526575 28.132500 68.029373 13.618444 28.132500 68.029373 9.526575 28.132500 47.569370 9.526575 28.132500 35.805000 15.408760 28.132500 25.849461 9.526575 28.132500 38.873741 15.408760 28.132500 47.569370 13.618444 28.132500 91.046875 15.408760 28.132500 87.210945 14.960629 28.132500 85.274895 14.705744 28.132500 83.470787 13.958457 28.132500 81.921562 12.769696 28.132500 80.732796 11.220472 28.132500 89.146988 14.705744 28.132500 90.951096 13.958457 28.132500 91.046875 13.884973 28.132500 11.489907 9.526575 28.132500 11.338227 13.003917 28.132500 9.206870 9.526575 28.132500 12.191542 11.220472 28.132500 14.675905 15.348995 28.132500 13.380303 12.769696 28.132500 14.929527 13.958457 28.132500 18.669683 16.175945 28.132500 16.733637 14.705744 28.132500 18.669683 14.960629 28.132500 20.605732 14.705744 28.132500 35.805000 16.175945 28.132500 22.409842 13.958457 28.132500 23.959064 12.769696 28.132500 25.147827 11.220472 28.132500 35.805000 15.408760 28.132500 25.849461 9.526575 28.132500 35.805000 16.175945 28.132500 25.147827 11.220472 28.132500 23.959064 12.769696 28.132500 22.409842 13.958457 28.132500 20.605732 14.705744 28.132500 18.669683 16.175945 28.132500 18.669683 14.960629 28.132500 16.733637 14.705744 28.132500 14.929527 13.958457 28.132500 14.675905 15.348995 28.132500 13.380303 12.769696 28.132500 12.191542 11.220472 28.132500 11.338227 13.003917 28.132500 11.489907 9.526575 28.132500 9.206870 9.526575 28.132500 91.046875 13.884973 28.132500 90.951096 13.958457 28.132500 91.046875 15.408760 28.132500 89.146988 14.705744 28.132500 87.210945 14.960629 28.132500 80.031166 9.526575 28.132500 68.029373 13.618444 28.132500 80.732796 11.220472 28.132500 81.921562 12.769696 28.132500 83.470787 13.958457 28.132500 85.274895 14.705744 28.132500 47.569370 13.618444 28.132500 38.873741 15.408760 28.132500 47.569370 9.526575 28.132500 68.029373 9.526575 28.132500 68.029373 9.526575 1.023130 47.569370 9.526575 4.603760 47.569370 9.526575 1.023130 68.029373 9.526575 4.603760 11.489907 9.526575 4.603760 9.206870 9.526575 28.132500 9.206870 9.526575 4.603760 25.849461 9.526575 4.603760 80.031166 9.526575 4.603760 91.046875 9.526575 4.603760 80.031166 9.526575 28.132500 91.046875 9.526575 28.132500 47.569370 9.526575 28.132500 11.489907 9.526575 28.132500 25.849461 9.526575 28.132500 68.029373 9.526575 28.132500 47.569370 9.526575 31.713131 68.029373 9.526575 31.713131 68.029373 9.526575 31.713131 68.029373 9.526575 28.132500 47.569370 9.526575 31.713131 47.569370 9.526575 28.132500 80.031166 9.526575 28.132500 25.849461 9.526575 28.132500 11.489907 9.526575 28.132500 9.206870 9.526575 28.132500 91.046875 9.526575 28.132500 91.046875 9.526575 4.603760 80.031166 9.526575 4.603760 68.029373 9.526575 4.603760 47.569370 9.526575 4.603760 25.849461 9.526575 4.603760 11.489907 9.526575 4.603760 9.206870 9.526575 4.603760 68.029373 9.526575 1.023130 47.569370 9.526575 1.023130 47.569370 13.618444 31.713131 47.569370 9.526575 28.132500 47.569370 9.526575 31.713131 47.569370 13.618444 28.132500 47.569370 13.618444 28.132500 47.569370 13.618444 31.713131 47.569370 9.526575 28.132500 47.569370 9.526575 31.713131 47.569370 13.618444 31.713131 68.029373 13.618444 28.132500 47.569370 13.618444 28.132500 68.029373 13.618444 31.713131 68.029373 13.618444 31.713131 47.569370 13.618444 31.713131 68.029373 13.618444 28.132500 47.569370 13.618444 28.132500 68.029373 13.618444 28.132500 68.029373 9.526575 31.713131 68.029373 9.526575 28.132500 68.029373 13.618444 31.713131 68.029373 13.618444 31.713131 68.029373 13.618444 28.132500 68.029373 9.526575 31.713131 68.029373 9.526575 28.132500 91.046875 9.526575 4.603760 91.046875 13.884973 28.132500 91.046875 9.526575 28.132500 91.046875 13.884973 4.603760 91.046875 15.408760 28.132500 91.046875 15.408760 4.603760 91.046875 15.408760 4.603760 91.046875 13.884973 4.603760 91.046875 15.408760 28.132500 91.046875 13.884973 28.132500 91.046875 9.526575 4.603760 91.046875 9.526575 28.132500 35.805000 15.408760 28.132500 38.873741 15.408760 4.603760 35.805000 15.408760 4.603760 38.873741 15.408760 28.132500 38.873741 15.408760 28.132500 35.805000 15.408760 28.132500 38.873741 15.408760 4.603760 35.805000 15.408760 4.603760 91.046875 15.408760 4.603760 47.569370 13.618444 4.603760 38.873741 15.408760 4.603760 68.029373 13.618444 4.603760 87.210945 14.960629 4.603760 85.274895 14.705744 4.603760 68.029373 9.526575 4.603760 83.470787 13.958457 4.603760 81.921562 12.769696 4.603760 80.732796 11.220472 4.603760 80.031166 9.526575 4.603760 89.146988 14.705744 4.603760 90.951096 13.958457 4.603760 91.046875 13.884973 4.603760 11.338227 13.003917 4.603760 11.489907 9.526575 4.603760 9.206870 9.526575 4.603760 12.191542 11.220471 4.603760 14.675905 15.348995 4.603760 13.380303 12.769696 4.603760 14.929527 13.958457 4.603760 18.669683 16.175945 4.603760 16.733637 14.705744 4.603760 18.669683 14.960629 4.603760 35.805000 16.175945 4.603760 20.605732 14.705744 4.603760 22.409842 13.958457 4.603760 23.959064 12.769696 4.603760 25.147827 11.220471 4.603760 25.849461 9.526575 4.603760 35.805000 15.408760 4.603760 47.569370 9.526575 4.603760 47.569370 13.618444 4.603760 38.873741 15.408760 4.603760 47.569370 9.526575 4.603760 35.805000 15.408760 4.603760 25.849461 9.526575 4.603760 35.805000 16.175945 4.603760 25.147827 11.220471 4.603760 23.959064 12.769696 4.603760 22.409842 13.958457 4.603760 20.605732 14.705744 4.603760 18.669683 14.960629 4.603760 18.669683 16.175945 4.603760 16.733637 14.705744 4.603760 14.929527 13.958457 4.603760 14.675905 15.348995 4.603760 13.380303 12.769696 4.603760 12.191542 11.220471 4.603760 11.338227 13.003917 4.603760 11.489907 9.526575 4.603760 9.206870 9.526575 4.603760 91.046875 13.884973 4.603760 91.046875 15.408760 4.603760 90.951096 13.958457 4.603760 89.146988 14.705744 4.603760 87.210945 14.960629 4.603760 80.031166 9.526575 4.603760 80.732796 11.220472 4.603760 68.029373 9.526575 4.603760 81.921562 12.769696 4.603760 83.470787 13.958457 4.603760 85.274895 14.705744 4.603760 68.029373 13.618444 4.603760 47.569370 13.618444 4.603760 47.569370 9.526575 1.023130 47.569370 9.526575 4.603760 47.569370 13.618444 1.023130 47.569370 13.618444 1.023130 47.569370 13.618444 4.603760 47.569370 9.526575 1.023130 47.569370 9.526575 4.603760 68.029373 13.618444 1.023130 47.569370 9.526575 1.023130 47.569370 13.618444 1.023130 68.029373 9.526575 1.023130 68.029373 9.526575 1.023130 68.029373 13.618444 1.023130 47.569370 9.526575 1.023130 47.569370 13.618444 1.023130 68.029373 9.526575 1.023130 68.029373 13.618444 4.603760 68.029373 9.526575 4.603760 68.029373 13.618444 1.023130 68.029373 13.618444 1.023130 68.029373 9.526575 1.023130 68.029373 13.618444 4.603760 68.029373 9.526575 4.603760 68.029373 9.526575 31.713131 47.569370 13.618444 31.713131 47.569370 9.526575 31.713131 68.029373 13.618444 31.713131 68.029373 13.618444 31.713131 68.029373 9.526575 31.713131 47.569370 13.618444 31.713131 47.569370 9.526575 31.713131 47.569370 13.618444 4.603760 68.029373 13.618444 1.023130 47.569370 13.618444 1.023130 68.029373 13.618444 4.603760 68.029373 13.618444 4.603760 47.569370 13.618444 4.603760 68.029373 13.618444 1.023130 47.569370 13.618444 1.023130 "
								            />
							</IndexedFaceSet>
						</Shape>
					</Group>
				</Transform>
			</Transform>
			<Transform DEF="group_0_007_TRANSFORM"
			           translation="0.000000 0.000000 0.000000"
			           scale="1.000000 1.000000 1.000000"
			           rotation="1.000000 0.000000 0.000000 0.000000"
			           >
				<Transform DEF="group_0_007_ifs_TRANSFORM"
				           translation="0.000000 0.000000 0.000000"
				           scale="1.000000 1.000000 1.000000"
				           rotation="1.000000 0.000000 0.000000 0.000000"
				           >
					<Group DEF="group_ME_ID53">
						<Shape>
							<Appearance>
								<Material USE="MA___auto_8" />
							</Appearance>
							<IndexedFaceSet solid="true"
							                coordIndex="0 1 2 -1 1 0 3 -1 1 3 4 -1 4 3 5 -1 4 5 6 -1 6 5 7 -1 6 7 8 -1 8 7 9 -1 8 9 10 -1 10 9 11 -1 10 11 12 -1 12 11 13 -1 12 13 14 -1 14 13 15 -1 14 15 16 -1 16 15 17 -1 16 17 18 -1 18 17 19 -1 18 19 20 -1 20 19 21 -1 20 21 22 -1 22 21 23 -1 "
							                >
								<Coordinate DEF="coords_ME_ID53"
								            point="14.866828 6.461342 31.713131 14.866828 8.499288 31.713131 14.732677 7.480315 31.713131 15.260136 5.511811 31.713131 15.260136 9.448818 31.713131 15.885800 4.696430 31.713131 15.885800 10.264200 31.713129 16.701181 4.070766 31.713131 16.701181 10.889864 31.713129 17.650713 3.677457 31.713131 17.650713 11.283173 31.713129 18.669683 3.543307 31.713129 18.669683 11.417322 31.713129 19.688658 3.677457 31.713129 19.688658 11.283173 31.713129 20.638189 4.070766 31.713129 20.638189 10.889864 31.713129 21.453569 4.696430 31.713129 21.453569 10.264200 31.713129 22.079233 5.511811 31.713129 22.079233 9.448818 31.713129 22.472542 6.461342 31.713129 22.472542 8.499288 31.713129 22.606691 7.480315 31.713129 "
								            />
							</IndexedFaceSet>
						</Shape>
					</Group>
				</Transform>
			</Transform>
			<Transform DEF="group_0_006_TRANSFORM"
			           translation="0.000000 0.000000 0.000000"
			           scale="1.000000 1.000000 1.000000"
			           rotation="1.000000 0.000000 0.000000 0.000000"
			           >
				<Transform DEF="group_0_006_ifs_TRANSFORM"
				           translation="0.000000 0.000000 0.000000"
				           scale="1.000000 1.000000 1.000000"
				           rotation="1.000000 0.000000 0.000000 0.000000"
				           >
					<Group DEF="group_ME_ID47">
						<Shape>
							<Appearance>
								<Material USE="MA_material" />
							</Appearance>
							<IndexedFaceSet solid="true"
							                creaseAngle="0.5236"
							                coordIndex="0 1 2 -1 1 0 3 -1 4 5 6 -1 5 4 7 -1 5 7 8 -1 8 7 9 -1 8 9 10 -1 10 9 11 -1 10 11 12 -1 12 11 13 -1 13 11 14 -1 14 11 15 -1 14 15 16 -1 16 15 17 -1 17 15 18 -1 18 15 19 -1 18 19 20 -1 20 19 21 -1 20 21 22 -1 22 21 23 -1 23 21 24 -1 23 24 25 -1 25 24 26 -1 26 24 27 -1 27 24 28 -1 27 28 29 -1 12 30 10 -1 30 12 31 -1 30 31 32 -1 30 32 33 -1 33 32 34 -1 33 34 35 -1 33 35 36 -1 33 36 37 -1 37 36 38 -1 37 38 39 -1 37 39 40 -1 40 39 41 -1 40 41 42 -1 42 41 43 -1 42 43 44 -1 42 44 45 -1 42 45 46 -1 46 45 29 -1 46 29 28 -1 46 28 47 -1 46 47 48 -1 48 47 49 -1 48 49 50 -1 50 49 51 -1 3 52 1 -1 52 3 53 -1 0 54 55 -1 54 0 2 -1 56 57 58 -1 57 56 59 -1 60 56 58 -1 56 60 61 -1 62 60 63 -1 60 62 61 -1 64 62 63 -1 62 64 65 -1 66 64 67 -1 64 66 65 -1 68 66 67 -1 66 68 69 -1 68 70 69 -1 70 68 71 -1 71 72 70 -1 72 71 73 -1 74 72 73 -1 72 74 75 -1 76 75 74 -1 75 76 77 -1 78 77 76 -1 77 78 79 -1 79 78 80 -1 81 79 80 -1 79 81 82 -1 83 81 84 -1 81 83 82 -1 85 84 86 -1 84 85 83 -1 87 86 88 -1 86 87 85 -1 53 88 52 -1 88 53 87 -1 55 89 90 -1 89 55 91 -1 91 55 54 -1 90 92 93 -1 92 90 89 -1 93 94 95 -1 94 93 92 -1 95 96 97 -1 96 95 94 -1 97 57 59 -1 57 97 96 -1 98 99 100 -1 99 98 101 -1 99 101 102 -1 102 101 103 -1 102 103 104 -1 104 103 105 -1 105 103 106 -1 106 103 107 -1 107 103 108 -1 108 103 109 -1 109 103 110 -1 110 103 111 -1 111 103 112 -1 112 103 113 -1 112 113 114 -1 "
							                >
								<Coordinate DEF="coords_ME_ID47"
								            point="13.380303 12.769696 31.713131 14.929527 13.958457 28.132500 13.380303 12.769696 28.132500 14.929527 13.958457 31.713129 11.444256 5.544267 31.713131 11.444256 9.416363 31.713131 11.189370 7.480315 31.713131 12.191542 3.740157 31.713131 12.191542 11.220472 31.713131 13.380303 2.190933 31.713131 13.380303 12.769696 31.713131 14.929527 1.002172 31.713131 14.732677 7.480315 31.713131 14.866828 6.461342 31.713131 15.260136 5.511811 31.713131 16.733637 0.254886 31.713131 15.885800 4.696430 31.713131 16.701181 4.070766 31.713131 17.650713 3.677457 31.713131 18.669683 0.000000 31.713131 18.669683 3.543307 31.713129 20.605732 0.254886 31.713129 19.688658 3.677457 31.713129 20.638189 4.070766 31.713129 22.409842 1.002172 31.713129 21.453569 4.696430 31.713129 22.079233 5.511811 31.713129 22.472542 6.461342 31.713129 23.959064 2.190933 31.713129 22.606691 7.480315 31.713129 14.929527 13.958457 31.713129 14.866828 8.499288 31.713131 15.260136 9.448818 31.713131 16.733637 14.705744 31.713129 15.885800 10.264200 31.713129 16.701181 10.889864 31.713129 17.650713 11.283173 31.713129 18.669683 14.960629 31.713129 18.669683 11.417322 31.713129 19.688658 11.283173 31.713129 20.605732 14.705744 31.713129 20.638189 10.889864 31.713129 22.409842 13.958457 31.713129 21.453569 10.264200 31.713129 22.079233 9.448818 31.713129 22.472542 8.499288 31.713129 23.959064 12.769696 31.713129 25.147827 3.740157 31.713129 25.147827 11.220472 31.713129 25.895115 5.544267 31.713129 25.895115 9.416363 31.713129 26.150000 7.480315 31.713129 16.733637 14.705744 28.132500 16.733637 14.705744 31.713129 12.191542 11.220472 28.132500 12.191542 11.220472 31.713131 14.929527 1.002172 31.713131 13.380303 2.190933 28.132500 14.929527 1.002172 28.132500 13.380303 2.190933 31.713131 16.733637 0.254886 28.132500 16.733637 0.254886 31.713131 18.669683 0.000000 31.713131 18.669683 0.000000 28.132500 20.605732 0.254886 28.132500 20.605732 0.254886 31.713129 22.409842 1.002172 31.713129 22.409842 1.002172 28.132500 23.959064 2.190933 28.132500 23.959064 2.190933 31.713129 25.147827 3.740157 31.713129 25.147827 3.740157 28.132500 25.895115 5.544267 31.713129 25.895115 5.544267 28.132500 26.150000 7.480315 28.132500 26.150000 7.480315 31.713129 25.895115 9.416363 28.132500 25.895115 9.416363 31.713129 25.849461 9.526575 28.132500 25.147827 11.220472 31.713129 25.147827 11.220472 28.132500 23.959064 12.769696 28.132500 23.959064 12.769696 31.713129 22.409842 13.958457 31.713129 22.409842 13.958457 28.132500 20.605732 14.705744 31.713129 20.605732 14.705744 28.132500 18.669683 14.960629 31.713129 18.669683 14.960629 28.132500 11.444256 9.416363 28.132500 11.444256 9.416363 31.713131 11.489907 9.526575 28.132500 11.189370 7.480315 28.132500 11.189370 7.480315 31.713131 11.444256 5.544267 28.132500 11.444256 5.544267 31.713131 12.191542 3.740157 28.132500 12.191542 3.740157 31.713131 11.444256 9.416363 28.132500 11.444256 5.544267 28.132500 11.189370 7.480315 28.132500 11.489907 9.526575 28.132500 12.191542 3.740157 28.132500 25.849461 9.526575 28.132500 13.380303 2.190933 28.132500 14.929527 1.002172 28.132500 16.733637 0.254886 28.132500 18.669683 0.000000 28.132500 20.605732 0.254886 28.132500 22.409842 1.002172 28.132500 23.959064 2.190933 28.132500 25.147827 3.740157 28.132500 25.895115 5.544267 28.132500 25.895115 9.416363 28.132500 26.150000 7.480315 28.132500 "
								            />
							</IndexedFaceSet>
						</Shape>
					</Group>
				</Transform>
			</Transform>
			<Transform DEF="group_0_005_TRANSFORM"
			           translation="0.000000 0.000000 0.000000"
			           scale="1.000000 1.000000 1.000000"
			           rotation="1.000000 0.000000 0.000000 0.000000"
			           >
				<Transform DEF="group_0_005_ifs_TRANSFORM"
				           translation="0.000000 0.000000 0.000000"
				           scale="1.000000 1.000000 1.000000"
				           rotation="1.000000 0.000000 0.000000 0.000000"
				           >
					<Group DEF="group_ME_ID39">
						<Shape>
							<Appearance>
								<Material DEF="MA___auto_218"
								          diffuseColor="0.800 0.800 0.800"
								          specularColor="0.401 0.401 0.401"
								          emissiveColor="0.000 0.000 0.000"
								          ambientIntensity="0.333"
								          shininess="0.098"
								          transparency="0.0"
								          />
							</Appearance>
							<IndexedFaceSet solid="true"
							                coordIndex="0 1 2 -1 1 0 3 -1 3 0 4 -1 3 4 5 -1 5 4 6 -1 1 7 8 -1 7 1 3 -1 8 7 6 -1 8 6 9 -1 9 6 4 -1 8 9 10 -1 8 10 11 -1 8 11 12 -1 11 10 13 -1 13 10 14 -1 12 15 16 -1 15 12 17 -1 17 12 18 -1 17 18 19 -1 18 12 20 -1 20 12 21 -1 21 12 11 -1 20 21 14 -1 20 14 10 -1 2 22 23 -1 22 2 16 -1 16 2 1 -1 22 16 15 -1 23 22 19 -1 23 19 18 -1 24 25 26 -1 25 27 26 -1 28 29 27 -1 30 31 29 -1 29 31 27 -1 26 27 31 -1 32 33 34 -1 33 35 34 -1 36 37 35 -1 35 37 34 -1 34 37 24 -1 25 24 38 -1 24 37 38 -1 38 37 28 -1 29 28 37 -1 33 32 39 -1 39 32 36 -1 37 36 40 -1 36 32 40 -1 32 41 40 -1 42 43 41 -1 41 43 40 -1 43 44 40 -1 45 30 44 -1 40 44 30 -1 43 42 46 -1 46 42 45 -1 42 47 45 -1 45 47 30 -1 31 30 47 -1 48 49 50 -1 49 48 51 -1 49 51 52 -1 52 51 53 -1 52 53 54 -1 54 53 55 -1 50 56 57 -1 56 50 58 -1 56 58 59 -1 58 50 60 -1 60 50 61 -1 61 50 49 -1 61 49 55 -1 61 55 62 -1 62 55 53 -1 63 64 65 -1 65 64 66 -1 64 67 66 -1 67 68 66 -1 66 68 69 -1 69 68 70 -1 71 70 72 -1 70 68 72 -1 73 72 68 -1 64 63 74 -1 74 63 75 -1 63 76 75 -1 75 76 67 -1 76 77 67 -1 68 67 77 -1 78 79 80 -1 79 78 81 -1 79 81 82 -1 79 82 83 -1 84 85 86 -1 85 87 86 -1 87 88 86 -1 89 86 88 -1 90 91 92 -1 91 90 93 -1 91 93 94 -1 94 93 95 -1 94 95 96 -1 97 98 99 -1 98 100 99 -1 99 100 101 -1 100 102 101 -1 103 101 102 -1 104 105 106 -1 107 108 109 -1 110 111 112 -1 111 110 113 -1 114 115 116 -1 117 116 115 -1 118 119 120 -1 119 118 121 -1 122 123 124 -1 125 124 123 -1 126 127 128 -1 127 126 129 -1 130 131 132 -1 133 132 131 -1 134 135 136 -1 137 138 139 -1 140 141 142 -1 141 140 143 -1 143 140 144 -1 143 144 145 -1 146 147 148 -1 147 149 148 -1 148 149 150 -1 151 150 149 -1 152 153 154 -1 153 152 155 -1 156 157 158 -1 159 158 157 -1 160 161 162 -1 161 160 163 -1 164 165 166 -1 167 166 165 -1 168 169 170 -1 169 168 171 -1 172 173 174 -1 175 174 173 -1 176 177 178 -1 177 176 179 -1 180 181 182 -1 183 182 181 -1 184 185 186 -1 185 184 187 -1 185 187 188 -1 188 187 189 -1 186 190 191 -1 190 186 185 -1 191 190 189 -1 191 189 187 -1 192 193 194 -1 193 195 194 -1 196 197 195 -1 194 195 197 -1 193 192 198 -1 198 192 196 -1 192 199 196 -1 197 196 199 -1 200 201 202 -1 201 200 203 -1 204 205 206 -1 207 206 205 -1 208 209 210 -1 209 208 211 -1 212 213 214 -1 215 214 213 -1 216 217 218 -1 217 216 219 -1 220 221 222 -1 223 222 221 -1 224 225 226 -1 225 224 227 -1 227 224 228 -1 228 224 229 -1 228 229 230 -1 227 231 225 -1 231 227 232 -1 231 232 233 -1 233 232 230 -1 233 230 229 -1 234 235 236 -1 235 237 236 -1 236 237 238 -1 237 239 238 -1 240 238 239 -1 235 234 241 -1 234 242 241 -1 241 242 239 -1 239 242 240 -1 243 240 242 -1 244 245 246 -1 245 244 247 -1 248 249 250 -1 251 250 249 -1 252 253 254 -1 253 252 255 -1 256 257 258 -1 259 258 257 -1 260 142 261 -1 142 260 140 -1 149 262 151 -1 263 151 262 -1 "
							                >
								<Coordinate DEF="coords_ME_ID39"
								            point="0.000000 9.526575 31.713131 0.000000 11.060945 22.506260 0.000000 9.526575 1.023130 0.000000 12.084074 30.690001 0.000000 15.664056 31.713131 0.000000 14.641574 30.690001 0.000000 14.641574 25.063759 0.000000 12.084074 25.063759 0.000000 16.943130 22.506260 0.000000 15.664056 24.040630 0.000000 23.592499 24.040630 0.000000 18.477499 22.506260 0.000000 16.943130 10.230000 0.000000 22.058128 22.506260 0.000000 22.058128 10.230000 0.000000 12.084074 7.672500 0.000000 11.060945 10.230000 0.000000 14.641574 7.672500 0.000000 15.664056 8.695630 0.000000 14.641574 2.046260 0.000000 23.592499 8.695630 0.000000 18.477499 10.230000 0.000000 12.084074 2.046260 0.000000 15.664056 1.023130 0.000000 15.664056 8.695630 0.000000 14.641574 2.046260 0.000000 15.664056 1.023130 0.000000 12.084074 2.046260 0.000000 12.084074 7.672500 0.000000 11.060945 10.230000 0.000000 11.060945 22.506260 0.000000 9.526575 1.023130 0.000000 23.592499 24.040630 0.000000 22.058128 10.230000 0.000000 23.592499 8.695630 0.000000 18.477499 10.230000 0.000000 18.477499 22.506260 0.000000 16.943130 10.230000 0.000000 14.641574 7.672500 0.000000 22.058128 22.506260 0.000000 16.943130 22.506260 0.000000 15.664056 24.040630 0.000000 15.664056 31.713131 0.000000 14.641574 25.063759 0.000000 12.084074 25.063759 0.000000 12.084074 30.690001 0.000000 14.641574 30.690001 0.000000 9.526575 31.713131 16.879370 25.638758 1.023130 18.360472 26.661890 1.023130 16.879370 17.710316 1.023130 20.459999 35.101574 1.023130 21.166771 34.078445 1.023130 35.805000 35.101574 1.023130 34.781868 34.078445 1.023130 34.781868 26.661890 1.023130 0.000000 9.526575 1.023130 0.000000 15.664056 1.023130 11.338227 13.003917 1.023130 9.206870 9.526575 1.023130 14.675905 15.348995 1.023130 18.669683 16.175945 1.023130 35.805000 16.175945 1.023130 35.805000 35.101574 1.023130 34.781868 26.661890 1.023130 35.805000 16.175945 1.023130 18.669683 16.175945 1.023130 18.360472 26.661890 1.023130 16.879370 17.710316 1.023130 14.675905 15.348995 1.023130 11.338227 13.003917 1.023130 9.206870 9.526575 1.023130 0.000000 9.526575 1.023130 0.000000 15.664056 1.023130 34.781868 34.078445 1.023130 21.166771 34.078445 1.023130 20.459999 35.101574 1.023130 16.879370 25.638758 1.023130 9.206870 9.526575 1.023130 0.000000 9.526575 31.713131 0.000000 9.526575 1.023130 9.206870 9.526575 4.603760 9.206870 9.526575 28.132500 9.206870 9.526575 31.713131 9.206870 9.526575 31.713131 9.206870 9.526575 28.132500 0.000000 9.526575 31.713131 9.206870 9.526575 4.603760 9.206870 9.526575 1.023130 0.000000 9.526575 1.023130 9.206870 9.526575 31.713131 0.000000 15.664056 31.713131 0.000000 9.526575 31.713131 11.338227 13.003917 31.713129 16.879370 17.710316 31.713129 14.675905 15.348995 31.713129 18.669683 16.175945 31.713129 18.669683 16.175945 31.713129 14.675905 15.348995 31.713129 16.879370 17.710316 31.713129 11.338227 13.003917 31.713129 0.000000 15.664056 31.713131 9.206870 9.526575 31.713131 0.000000 9.526575 31.713131 16.879370 17.710316 31.713129 0.000000 15.664056 24.040630 0.000000 15.664056 31.713131 0.000000 15.664056 31.713131 0.000000 15.664056 24.040630 16.879370 17.710316 31.713129 16.879370 17.710316 31.713129 0.000000 23.592499 24.040630 0.000000 15.664056 24.040630 16.879370 25.638758 31.713131 16.879370 25.638758 31.713131 16.879370 17.710316 31.713129 0.000000 23.592499 24.040630 0.000000 15.664056 24.040630 0.000000 23.592499 8.695630 16.879370 25.638758 31.713131 16.879370 25.638758 1.023130 0.000000 23.592499 24.040630 0.000000 23.592499 24.040630 0.000000 23.592499 8.695630 16.879370 25.638758 31.713131 16.879370 25.638758 1.023130 16.879370 25.638758 1.023130 0.000000 15.664056 8.695630 0.000000 23.592499 8.695630 16.879370 17.710316 1.023130 16.879370 17.710316 1.023130 16.879370 25.638758 1.023130 0.000000 15.664056 8.695630 0.000000 23.592499 8.695630 0.000000 15.664056 8.695630 16.879370 17.710316 1.023130 0.000000 15.664056 1.023130 0.000000 15.664056 1.023130 16.879370 17.710316 1.023130 0.000000 15.664056 8.695630 35.805000 16.175945 4.603760 35.805000 16.175945 31.713131 35.805000 16.175945 28.132500 35.805000 35.101574 31.713131 35.805000 16.175945 1.023130 35.805000 35.101574 1.023130 35.805000 35.101574 1.023130 35.805000 16.175945 1.023130 35.805000 35.101574 31.713131 35.805000 16.175945 4.603760 35.805000 16.175945 31.713131 35.805000 16.175945 28.132500 35.805000 16.175945 1.023130 18.669683 16.175945 4.603760 18.669683 16.175945 1.023130 35.805000 16.175945 4.603760 35.805000 16.175945 4.603760 35.805000 16.175945 1.023130 18.669683 16.175945 4.603760 18.669683 16.175945 1.023130 18.669683 16.175945 1.023130 14.675905 15.348995 4.603760 14.675905 15.348995 1.023130 18.669683 16.175945 4.603760 18.669683 16.175945 4.603760 18.669683 16.175945 1.023130 14.675905 15.348995 4.603760 14.675905 15.348995 1.023130 14.675905 15.348995 1.023130 11.338227 13.003917 4.603760 11.338227 13.003917 1.023130 14.675905 15.348995 4.603760 14.675905 15.348995 4.603760 14.675905 15.348995 1.023130 11.338227 13.003917 4.603760 11.338227 13.003917 1.023130 9.206870 9.526575 1.023130 11.338227 13.003917 4.603760 9.206870 9.526575 4.603760 11.338227 13.003917 1.023130 11.338227 13.003917 1.023130 9.206870 9.526575 1.023130 11.338227 13.003917 4.603760 9.206870 9.526575 4.603760 16.879370 25.638758 31.713131 17.241201 26.595629 30.690001 16.879370 25.638758 1.023130 20.459999 35.101574 31.713131 20.098169 34.144707 30.690001 20.098169 34.144707 2.046260 17.241201 26.595629 2.046260 20.459999 35.101574 1.023130 20.459999 35.101574 31.713131 20.098169 34.144707 2.046260 20.459999 35.101574 1.023130 17.241201 26.595629 2.046260 17.241201 26.595629 30.690001 16.879370 25.638758 1.023130 20.098169 34.144707 30.690001 16.879370 25.638758 31.713131 20.459999 35.101574 31.713131 35.805000 35.101574 1.023130 20.459999 35.101574 1.023130 35.805000 35.101574 31.713131 35.805000 35.101574 31.713131 20.459999 35.101574 31.713131 35.805000 35.101574 1.023130 20.459999 35.101574 1.023130 11.338227 13.003917 28.132500 9.206870 9.526575 31.713131 9.206870 9.526575 28.132500 11.338227 13.003917 31.713129 11.338227 13.003917 31.713129 11.338227 13.003917 28.132500 9.206870 9.526575 31.713131 9.206870 9.526575 28.132500 18.669683 16.175945 28.132500 14.675905 15.348995 31.713129 14.675905 15.348995 28.132500 18.669683 16.175945 31.713129 18.669683 16.175945 31.713129 18.669683 16.175945 28.132500 14.675905 15.348995 31.713129 14.675905 15.348995 28.132500 18.669683 16.175945 31.713129 16.879370 25.638758 31.713131 16.879370 17.710316 31.713129 18.360472 26.661890 31.713131 34.781868 26.661890 31.713131 35.805000 16.175945 31.713131 34.781868 34.078445 31.713131 20.459999 35.101574 31.713131 21.166771 34.078445 31.713131 35.805000 35.101574 31.713131 35.805000 16.175945 31.713131 34.781868 34.078445 31.713131 35.805000 35.101574 31.713131 21.166771 34.078445 31.713131 20.459999 35.101574 31.713131 18.360472 26.661890 31.713131 16.879370 25.638758 31.713131 34.781868 26.661890 31.713131 18.669683 16.175945 31.713129 16.879370 17.710316 31.713129 14.675905 15.348995 28.132500 11.338227 13.003917 31.713129 11.338227 13.003917 28.132500 14.675905 15.348995 31.713129 14.675905 15.348995 31.713129 14.675905 15.348995 28.132500 11.338227 13.003917 31.713129 11.338227 13.003917 28.132500 35.805000 16.175945 28.132500 18.669683 16.175945 31.713129 18.669683 16.175945 28.132500 35.805000 16.175945 31.713131 35.805000 16.175945 31.713131 35.805000 16.175945 28.132500 18.669683 16.175945 31.713129 18.669683 16.175945 28.132500 35.805000 15.408760 4.603760 35.805000 15.408760 28.132500 35.805000 15.408760 4.603760 35.805000 15.408760 28.132500 "
								            />
							</IndexedFaceSet>
						</Shape>
					</Group>
				</Transform>
			</Transform>
			<Transform DEF="group_0_004_TRANSFORM"
			           translation="0.000000 0.000000 0.000000"
			           scale="1.000000 1.000000 1.000000"
			           rotation="1.000000 0.000000 0.000000 0.000000"
			           >
				<Transform DEF="group_0_004_ifs_TRANSFORM"
				           translation="0.000000 0.000000 0.000000"
				           scale="1.000000 1.000000 1.000000"
				           rotation="1.000000 0.000000 0.000000 0.000000"
				           >
					<Group DEF="group_ME_ID33">
						<Shape>
							<Appearance>
								<Material USE="MA___auto_" />
							</Appearance>
							<IndexedFaceSet solid="true"
							                coordIndex="0 1 2 -1 1 0 3 -1 4 5 6 -1 7 6 5 -1 "
							                >
								<Coordinate DEF="coords_ME_ID33"
								            point="0.000000 14.641574 30.690001 0.000000 12.084074 25.063759 0.000000 12.084074 30.690001 0.000000 14.641574 25.063759 0.000000 14.641574 25.063759 0.000000 14.641574 30.690001 0.000000 12.084074 25.063759 0.000000 12.084074 30.690001 "
								            />
							</IndexedFaceSet>
						</Shape>
					</Group>
				</Transform>
			</Transform>
			<Transform DEF="group_0_003_TRANSFORM"
			           translation="0.000000 0.000000 0.000000"
			           scale="1.000000 1.000000 1.000000"
			           rotation="1.000000 0.000000 0.000000 0.000000"
			           >
				<Transform DEF="group_0_003_ifs_TRANSFORM"
				           translation="0.000000 0.000000 0.000000"
				           scale="1.000000 1.000000 1.000000"
				           rotation="1.000000 0.000000 0.000000 0.000000"
				           >
					<Group DEF="group_ME_ID27">
						<Shape>
							<Appearance>
								<Material USE="MA_material" />
							</Appearance>
							<IndexedFaceSet solid="true"
							                creaseAngle="0.5236"
							                coordIndex="0 1 2 -1 1 0 3 -1 4 5 6 -1 5 4 7 -1 5 7 8 -1 8 7 9 -1 8 9 10 -1 10 9 11 -1 10 11 12 -1 12 11 13 -1 13 11 14 -1 14 11 15 -1 14 15 16 -1 16 15 17 -1 17 15 18 -1 18 15 19 -1 18 19 20 -1 20 19 21 -1 20 21 22 -1 22 21 23 -1 23 21 24 -1 23 24 25 -1 25 24 26 -1 26 24 27 -1 27 24 28 -1 27 28 29 -1 12 30 10 -1 30 12 31 -1 30 31 32 -1 30 32 33 -1 33 32 34 -1 33 34 35 -1 33 35 36 -1 33 36 37 -1 37 36 38 -1 37 38 39 -1 37 39 40 -1 40 39 41 -1 40 41 42 -1 42 41 43 -1 42 43 44 -1 42 44 45 -1 42 45 46 -1 46 45 29 -1 46 29 28 -1 46 28 47 -1 46 47 48 -1 48 47 49 -1 48 49 50 -1 50 49 51 -1 2 52 53 -1 52 2 1 -1 54 55 56 -1 55 54 57 -1 55 57 58 -1 58 57 59 -1 59 57 60 -1 59 60 61 -1 59 61 62 -1 59 62 63 -1 59 63 64 -1 59 64 65 -1 59 65 66 -1 59 66 67 -1 67 66 68 -1 68 66 69 -1 68 69 70 -1 70 69 71 -1 70 71 72 -1 72 71 73 -1 3 0 74 -1 3 74 75 -1 76 77 78 -1 77 76 79 -1 80 78 81 -1 78 80 76 -1 82 81 83 -1 81 82 80 -1 84 83 85 -1 83 84 82 -1 84 86 87 -1 86 84 85 -1 87 88 89 -1 88 87 86 -1 89 90 91 -1 90 89 88 -1 91 92 93 -1 92 91 90 -1 93 94 95 -1 94 93 92 -1 95 53 52 -1 53 95 94 -1 96 75 74 -1 75 96 97 -1 98 97 96 -1 97 98 99 -1 99 98 100 -1 101 99 100 -1 99 101 102 -1 101 103 102 -1 103 101 104 -1 104 105 103 -1 105 104 106 -1 106 107 105 -1 107 106 108 -1 108 109 107 -1 109 108 110 -1 110 111 109 -1 111 110 112 -1 112 113 111 -1 113 112 114 -1 115 113 114 -1 113 116 117 -1 116 113 115 -1 117 77 79 -1 77 117 116 -1 "
							                >
								<Coordinate DEF="coords_ME_ID27"
								            point="79.985512 5.544267 4.603760 80.732796 3.740157 1.023130 80.732796 3.740157 4.603760 79.985512 5.544267 1.023130 79.985512 9.416363 1.023130 79.985512 5.544267 1.023130 79.730629 7.480315 1.023130 80.732796 11.220472 1.023130 80.732796 3.740157 1.023130 81.921562 12.769696 1.023130 81.921562 2.190933 1.023130 83.470787 13.958457 1.023130 83.273933 7.480315 1.023130 83.408089 8.499288 1.023130 83.801392 9.448818 1.023130 85.274895 14.705744 1.023130 84.427055 10.264200 1.023130 85.242439 10.889864 1.023130 86.191971 11.283173 1.023130 87.210945 14.960629 1.023130 87.210945 11.417322 1.023130 89.146988 14.705744 1.023130 88.229919 11.283173 1.023130 89.179451 10.889864 1.023130 90.951096 13.958457 1.023130 89.994835 10.264200 1.023130 90.620491 9.448818 1.023130 91.013802 8.499288 1.023130 92.500328 12.769696 1.023130 91.147957 7.480315 1.023130 83.470787 1.002172 1.023130 83.408089 6.461342 1.023130 83.801392 5.511811 1.023130 85.274895 0.254886 1.023130 84.427055 4.696430 1.023130 85.242439 4.070766 1.023130 86.191971 3.677457 1.023130 87.210945 0.000000 1.023130 87.210945 3.543307 1.023130 88.229919 3.677457 1.023130 89.146988 0.254886 1.023130 89.179451 4.070766 1.023130 90.951096 1.002172 1.023130 89.994835 4.696430 1.023130 90.620491 5.511811 1.023130 91.013802 6.461342 1.023130 92.500328 2.190933 1.023130 93.689095 11.220471 1.023130 93.689095 3.740157 1.023130 94.436378 9.416363 1.023130 94.436378 5.544267 1.023130 94.691261 7.480315 1.023130 81.921562 2.190933 1.023130 81.921562 2.190933 4.603760 79.985512 5.544267 4.603760 79.985512 9.416363 4.603760 79.730629 7.480315 4.603760 80.732796 3.740157 4.603760 80.031166 9.526575 4.603760 91.046875 9.526575 4.603760 81.921562 2.190933 4.603760 83.470787 1.002172 4.603760 85.274895 0.254886 4.603760 87.210945 0.000000 4.603760 89.146988 0.254886 4.603760 90.951096 1.002172 4.603760 92.500328 2.190933 4.603760 91.046875 13.884973 4.603760 92.500328 12.769696 4.603760 93.689095 3.740157 4.603760 93.689095 11.220471 4.603760 94.436378 5.544267 4.603760 94.436378 9.416363 4.603760 94.691261 7.480315 4.603760 79.730629 7.480315 4.603760 79.730629 7.480315 1.023130 94.691261 7.480315 1.023130 94.436378 9.416363 4.603760 94.691261 7.480315 4.603760 94.436378 9.416363 1.023130 94.436378 5.544267 1.023130 94.436378 5.544267 4.603760 93.689095 3.740157 1.023130 93.689095 3.740157 4.603760 92.500328 2.190933 1.023130 92.500328 2.190933 4.603760 90.951096 1.002172 4.603760 90.951096 1.002172 1.023130 89.146988 0.254886 4.603760 89.146988 0.254886 1.023130 87.210945 0.000000 4.603760 87.210945 0.000000 1.023130 85.274895 0.254886 4.603760 85.274895 0.254886 1.023130 83.470787 1.002172 4.603760 83.470787 1.002172 1.023130 79.985512 9.416363 4.603760 79.985512 9.416363 1.023130 80.031166 9.526575 4.603760 80.732796 11.220472 1.023130 80.732796 11.220472 4.603760 81.921562 12.769696 4.603760 81.921562 12.769696 1.023130 83.470787 13.958457 1.023130 83.470787 13.958457 4.603760 85.274895 14.705744 1.023130 85.274895 14.705744 4.603760 87.210945 14.960629 1.023130 87.210945 14.960629 4.603760 89.146988 14.705744 1.023130 89.146988 14.705744 4.603760 90.951096 13.958457 1.023130 90.951096 13.958457 4.603760 92.500328 12.769696 1.023130 91.046875 13.884973 4.603760 92.500328 12.769696 4.603760 93.689095 11.220471 4.603760 93.689095 11.220471 1.023130 "
								            />
							</IndexedFaceSet>
						</Shape>
					</Group>
				</Transform>
			</Transform>
			<Transform DEF="group_0_002_TRANSFORM"
			           translation="0.000000 0.000000 0.000000"
			           scale="1.000000 1.000000 1.000000"
			           rotation="1.000000 0.000000 0.000000 0.000000"
			           >
				<Transform DEF="group_0_002_ifs_TRANSFORM"
				           translation="0.000000 0.000000 0.000000"
				           scale="1.000000 1.000000 1.000000"
				           rotation="1.000000 0.000000 0.000000 0.000000"
				           >
					<Group DEF="group_ME_ID19">
						<Shape>
							<Appearance>
								<Material USE="MA___auto_" />
							</Appearance>
							<IndexedFaceSet solid="true"
							                coordIndex="0 1 2 -1 1 0 3 -1 4 5 6 -1 7 6 5 -1 "
							                >
								<Coordinate DEF="coords_ME_ID19"
								            point="34.781868 26.661890 31.713131 21.166771 34.078445 31.713131 18.360472 26.661890 31.713131 34.781868 34.078445 31.713131 34.781868 34.078445 31.713131 34.781868 26.661890 31.713131 21.166771 34.078445 31.713131 18.360472 26.661890 31.713131 "
								            />
							</IndexedFaceSet>
						</Shape>
					</Group>
				</Transform>
			</Transform>
			<Transform DEF="group_0_001_TRANSFORM"
			           translation="0.000000 0.000000 0.000000"
			           scale="1.000000 1.000000 1.000000"
			           rotation="1.000000 0.000000 0.000000 0.000000"
			           >
				<Transform DEF="group_0_001_ifs_TRANSFORM"
				           translation="0.000000 0.000000 0.000000"
				           scale="1.000000 1.000000 1.000000"
				           rotation="1.000000 0.000000 0.000000 0.000000"
				           >
					<Group DEF="group_ME_ID11">
						<Shape>
							<Appearance>
								<Material USE="MA_material" />
							</Appearance>
							<IndexedFaceSet solid="true"
							                creaseAngle="0.5236"
							                coordIndex="0 1 2 -1 1 0 3 -1 4 5 6 -1 5 4 7 -1 5 7 8 -1 8 7 9 -1 8 9 10 -1 10 9 11 -1 10 11 12 -1 12 11 13 -1 13 11 14 -1 14 11 15 -1 14 15 16 -1 16 15 17 -1 17 15 18 -1 18 15 19 -1 18 19 20 -1 20 19 21 -1 20 21 22 -1 22 21 23 -1 23 21 24 -1 23 24 25 -1 25 24 26 -1 26 24 27 -1 27 24 28 -1 27 28 29 -1 12 30 10 -1 30 12 31 -1 30 31 32 -1 30 32 33 -1 33 32 34 -1 33 34 35 -1 33 35 36 -1 33 36 37 -1 37 36 38 -1 37 38 39 -1 37 39 40 -1 40 39 41 -1 40 41 42 -1 42 41 43 -1 42 43 44 -1 42 44 45 -1 42 45 46 -1 46 45 29 -1 46 29 28 -1 46 28 47 -1 46 47 48 -1 48 47 49 -1 48 49 50 -1 50 49 51 -1 1 52 2 -1 52 1 53 -1 54 55 56 -1 57 58 59 -1 58 57 60 -1 58 60 61 -1 61 60 55 -1 61 55 62 -1 62 55 63 -1 63 55 64 -1 64 55 65 -1 65 55 66 -1 66 55 67 -1 67 55 68 -1 68 55 54 -1 68 54 69 -1 68 69 70 -1 70 69 71 -1 70 71 72 -1 72 71 73 -1 74 0 75 -1 0 74 3 -1 76 77 78 -1 77 76 79 -1 79 80 77 -1 80 79 81 -1 81 82 80 -1 82 81 83 -1 83 84 82 -1 84 83 85 -1 85 86 84 -1 86 85 87 -1 87 88 86 -1 88 87 89 -1 90 91 92 -1 91 88 89 -1 88 91 90 -1 93 92 94 -1 92 93 90 -1 95 94 96 -1 94 95 93 -1 97 96 98 -1 96 97 95 -1 99 98 100 -1 98 99 97 -1 101 100 102 -1 100 101 99 -1 101 103 104 -1 103 101 102 -1 104 105 106 -1 105 104 107 -1 107 104 103 -1 106 108 109 -1 108 106 105 -1 109 110 111 -1 110 109 108 -1 111 112 113 -1 112 111 110 -1 113 114 115 -1 114 113 112 -1 116 114 117 -1 114 116 115 -1 53 117 52 -1 117 53 116 -1 78 75 76 -1 75 78 74 -1 "
							                >
								<Coordinate DEF="coords_ME_ID11"
								            point="89.146988 0.254886 28.132500 87.210945 0.000000 31.713131 87.210945 0.000000 28.132500 89.146988 0.254886 31.713131 79.985512 5.544267 31.713131 79.985512 9.416363 31.713131 79.730629 7.480315 31.713131 80.732796 3.740157 31.713131 80.732796 11.220472 31.713131 81.921562 2.190933 31.713131 81.921562 12.769696 31.713131 83.470787 1.002172 31.713131 83.273933 7.480315 31.713131 83.408089 6.461342 31.713131 83.801392 5.511811 31.713131 85.274895 0.254886 31.713131 84.427055 4.696430 31.713131 85.242439 4.070766 31.713131 86.191971 3.677457 31.713131 87.210945 0.000000 31.713131 87.210945 3.543307 31.713131 89.146988 0.254886 31.713131 88.229919 3.677457 31.713131 89.179451 4.070766 31.713131 90.951096 1.002172 31.713131 89.994835 4.696430 31.713131 90.620491 5.511811 31.713131 91.013802 6.461342 31.713131 92.500328 2.190933 31.713131 91.147957 7.480315 31.713131 83.470787 13.958457 31.713131 83.408089 8.499288 31.713131 83.801392 9.448818 31.713131 85.274895 14.705744 31.713131 84.427055 10.264200 31.713131 85.242439 10.889864 31.713131 86.191971 11.283173 31.713131 87.210945 14.960629 31.713131 87.210945 11.417322 31.713131 88.229919 11.283173 31.713131 89.146988 14.705744 31.713131 89.179451 10.889864 31.713131 90.951096 13.958457 31.713131 89.994835 10.264200 31.713131 90.620491 9.448818 31.713131 91.013802 8.499288 31.713131 92.500328 12.769696 31.713131 93.689095 3.740157 31.713131 93.689095 11.220472 31.713131 94.436378 5.544267 31.713131 94.436378 9.416363 31.713131 94.691261 7.480315 31.713131 85.274895 0.254886 28.132500 85.274895 0.254886 31.713131 92.500328 12.769696 28.132500 91.046875 9.526575 28.132500 91.046875 13.884973 28.132500 79.985512 9.416363 28.132500 79.985512 5.544267 28.132500 79.730629 7.480315 28.132500 80.031166 9.526575 28.132500 80.732796 3.740157 28.132500 81.921562 2.190933 28.132500 83.470787 1.002172 28.132500 85.274895 0.254886 28.132500 87.210945 0.000000 28.132500 89.146988 0.254886 28.132500 90.951096 1.002172 28.132500 92.500328 2.190933 28.132500 93.689095 11.220472 28.132500 93.689095 3.740157 28.132500 94.436378 9.416363 28.132500 94.436378 5.544267 28.132500 94.691261 7.480315 28.132500 90.951096 1.002172 31.713131 90.951096 1.002172 28.132500 92.500328 2.190933 28.132500 93.689095 3.740157 31.713131 92.500328 2.190933 31.713131 93.689095 3.740157 28.132500 94.436378 5.544267 31.713131 94.436378 5.544267 28.132500 94.691261 7.480315 31.713131 94.691261 7.480315 28.132500 94.436378 9.416363 31.713131 94.436378 9.416363 28.132500 93.689095 11.220472 31.713131 93.689095 11.220472 28.132500 92.500328 12.769696 31.713131 92.500328 12.769696 28.132500 90.951096 13.958457 31.713131 91.046875 13.884973 28.132500 90.951096 13.958457 28.132500 89.146988 14.705744 31.713131 89.146988 14.705744 28.132500 87.210945 14.960629 31.713131 87.210945 14.960629 28.132500 85.274895 14.705744 31.713131 85.274895 14.705744 28.132500 83.470787 13.958457 31.713131 83.470787 13.958457 28.132500 81.921562 12.769696 31.713131 81.921562 12.769696 28.132500 80.732796 11.220472 28.132500 80.732796 11.220472 31.713131 79.985512 9.416363 28.132500 79.985512 9.416363 31.713131 80.031166 9.526575 28.132500 79.730629 7.480315 28.132500 79.730629 7.480315 31.713131 79.985512 5.544267 28.132500 79.985512 5.544267 31.713131 80.732796 3.740157 28.132500 80.732796 3.740157 31.713131 81.921562 2.190933 28.132500 81.921562 2.190933 31.713131 83.470787 1.002172 31.713131 83.470787 1.002172 28.132500 "
								            />
							</IndexedFaceSet>
						</Shape>
					</Group>
				</Transform>
			</Transform>
			<Transform DEF="group_0_TRANSFORM"
			           translation="0.000000 0.000000 0.000000"
			           scale="1.000000 1.000000 1.000000"
			           rotation="1.000000 0.000000 0.000000 0.000000"
			           >
				<Transform DEF="group_0_ifs_TRANSFORM"
				           translation="0.000000 0.000000 0.000000"
				           scale="1.000000 1.000000 1.000000"
				           rotation="1.000000 0.000000 0.000000 0.000000"
				           >
					<Group DEF="group_ME_ID3">
						<Shape>
							<Appearance>
								<Material DEF="MA___auto_100"
								          diffuseColor="0.016 0.325 0.184"
								          specularColor="0.401 0.401 0.401"
								          emissiveColor="0.000 0.000 0.000"
								          ambientIntensity="0.333"
								          shininess="0.098"
								          transparency="0.0"
								          />
							</Appearance>
							<IndexedFaceSet solid="true"
							                coordIndex="0 1 2 -1 1 0 3 -1 4 5 6 -1 7 6 5 -1 8 9 10 -1 9 8 11 -1 12 13 14 -1 13 12 15 -1 16 17 18 -1 17 16 19 -1 20 21 22 -1 21 20 23 -1 23 20 24 -1 24 20 25 -1 25 20 26 -1 26 20 27 -1 27 20 28 -1 28 20 9 -1 28 9 18 -1 28 18 29 -1 9 20 10 -1 18 9 14 -1 18 14 13 -1 29 18 17 -1 26 30 31 -1 30 26 27 -1 24 32 33 -1 32 24 25 -1 21 34 35 -1 34 21 23 -1 36 37 38 -1 39 38 37 -1 40 41 42 -1 43 42 41 -1 44 45 46 -1 47 46 45 -1 48 49 50 -1 51 52 49 -1 52 53 49 -1 54 55 53 -1 50 49 56 -1 49 53 56 -1 53 55 56 -1 56 55 44 -1 44 55 45 -1 45 55 40 -1 40 55 41 -1 41 55 36 -1 36 55 37 -1 57 37 55 -1 58 59 48 -1 49 48 59 -1 60 61 51 -1 52 51 61 -1 62 63 53 -1 54 53 63 -1 64 65 66 -1 65 64 67 -1 67 64 68 -1 67 68 69 -1 68 64 70 -1 70 64 71 -1 70 71 72 -1 71 64 73 -1 73 64 74 -1 73 74 75 -1 74 64 76 -1 76 77 78 -1 77 76 79 -1 79 76 80 -1 80 76 64 -1 80 64 81 -1 80 81 82 -1 83 75 74 -1 84 72 71 -1 85 69 68 -1 86 87 88 -1 89 90 91 -1 92 93 94 -1 95 96 97 -1 96 98 97 -1 98 99 97 -1 97 99 100 -1 100 99 101 -1 102 101 99 -1 99 98 92 -1 93 92 103 -1 92 98 103 -1 103 98 89 -1 90 89 104 -1 89 98 104 -1 104 98 86 -1 87 86 105 -1 86 98 105 -1 105 98 106 -1 107 106 98 -1 108 109 110 -1 109 108 111 -1 112 113 114 -1 115 114 113 -1 116 117 118 -1 117 116 119 -1 120 121 122 -1 123 122 121 -1 124 125 126 -1 125 124 127 -1 128 129 130 -1 131 130 129 -1 132 133 134 -1 133 132 135 -1 136 137 138 -1 139 138 137 -1 140 141 142 -1 141 140 143 -1 144 145 146 -1 147 146 145 -1 148 149 150 -1 151 152 153 -1 154 155 156 -1 157 158 159 -1 158 157 160 -1 158 160 161 -1 158 161 162 -1 162 161 163 -1 163 161 164 -1 149 165 166 -1 165 149 162 -1 162 149 167 -1 167 149 148 -1 162 167 152 -1 162 152 168 -1 168 152 151 -1 162 168 155 -1 162 155 169 -1 169 155 154 -1 162 169 158 -1 170 171 172 -1 173 174 171 -1 171 174 172 -1 174 175 172 -1 176 177 175 -1 175 177 172 -1 177 178 172 -1 179 180 178 -1 178 180 172 -1 172 180 181 -1 182 181 180 -1 183 184 185 -1 185 184 172 -1 172 184 170 -1 184 186 170 -1 186 187 170 -1 188 170 187 -1 189 174 173 -1 190 177 176 -1 191 180 179 -1 192 193 194 -1 193 192 195 -1 196 197 198 -1 199 198 197 -1 200 201 202 -1 201 200 203 -1 204 205 206 -1 207 206 205 -1 208 209 210 -1 209 208 211 -1 212 213 214 -1 215 214 213 -1 216 217 218 -1 217 216 219 -1 220 221 222 -1 223 222 221 -1 224 225 226 -1 225 224 227 -1 228 229 230 -1 231 230 229 -1 232 233 234 -1 233 232 235 -1 236 237 238 -1 239 238 237 -1 240 241 242 -1 241 240 243 -1 244 245 246 -1 247 246 245 -1 248 249 250 -1 249 248 251 -1 252 253 254 -1 255 254 253 -1 256 257 258 -1 257 256 259 -1 260 261 262 -1 263 262 261 -1 264 265 266 -1 265 264 267 -1 268 269 270 -1 271 270 269 -1 272 273 274 -1 273 272 275 -1 276 277 278 -1 279 278 277 -1 280 281 282 -1 281 280 283 -1 284 285 286 -1 287 286 285 -1 288 289 290 -1 289 288 291 -1 292 293 294 -1 295 294 293 -1 296 297 298 -1 297 296 299 -1 300 301 302 -1 303 302 301 -1 304 305 306 -1 305 304 307 -1 307 304 308 -1 308 304 309 -1 310 311 312 -1 312 311 313 -1 313 311 314 -1 315 314 311 -1 316 317 318 -1 317 316 319 -1 320 321 322 -1 323 322 321 -1 324 325 326 -1 325 324 327 -1 328 329 330 -1 331 330 329 -1 332 333 334 -1 333 332 335 -1 336 337 338 -1 339 338 337 -1 340 341 342 -1 341 340 343 -1 344 345 346 -1 347 346 345 -1 348 349 350 -1 349 348 351 -1 349 351 352 -1 352 351 353 -1 353 351 354 -1 355 350 349 -1 356 357 358 -1 359 360 361 -1 361 360 362 -1 362 360 356 -1 360 363 356 -1 357 356 363 -1 364 365 366 -1 365 364 367 -1 367 364 368 -1 368 364 369 -1 370 371 372 -1 372 371 373 -1 373 371 374 -1 375 374 371 -1 376 377 378 -1 377 376 379 -1 379 376 380 -1 379 380 381 -1 381 380 382 -1 382 383 381 -1 384 385 386 -1 386 387 384 -1 384 387 388 -1 387 389 388 -1 388 389 390 -1 391 390 389 -1 392 393 394 -1 393 392 395 -1 396 397 398 -1 399 398 397 -1 400 401 402 -1 401 400 403 -1 404 405 406 -1 407 406 405 -1 408 409 410 -1 409 408 411 -1 412 413 414 -1 415 414 413 -1 416 417 418 -1 417 416 419 -1 417 419 420 -1 420 419 421 -1 422 418 421 -1 418 422 416 -1 421 418 423 -1 421 423 420 -1 424 425 426 -1 425 427 426 -1 428 429 427 -1 426 427 429 -1 426 430 424 -1 424 430 431 -1 430 428 431 -1 427 431 428 -1 432 433 434 -1 433 432 435 -1 436 437 438 -1 439 438 437 -1 440 441 442 -1 441 440 443 -1 444 445 446 -1 447 446 445 -1 448 449 450 -1 449 448 451 -1 452 453 454 -1 455 454 453 -1 456 457 458 -1 457 456 459 -1 460 461 462 -1 463 462 461 -1 464 465 466 -1 465 464 467 -1 468 469 470 -1 471 470 469 -1 472 473 474 -1 473 472 475 -1 476 477 478 -1 479 478 477 -1 "
							                >
								<Coordinate DEF="coords_ME_ID3"
								            point="60.868759 38.682205 31.713131 60.868759 17.966259 32.736259 60.868759 17.966259 31.713131 60.868759 38.682205 32.736259 60.868759 38.682205 32.736259 60.868759 38.682205 31.713131 60.868759 17.966259 32.736259 60.868759 17.966259 31.713131 48.081261 38.682205 32.736259 50.382816 38.682205 31.713131 48.081261 38.682205 31.713131 50.382816 38.682205 32.736259 58.566555 38.682205 32.736259 60.868759 38.682205 31.713131 58.566555 38.682205 31.713131 60.868759 38.682205 32.736259 69.052498 38.682205 32.736259 71.354050 38.682205 31.713131 69.052498 38.682205 31.713131 71.354050 38.682205 32.736259 39.896870 38.682205 31.713131 48.081261 38.682205 1.023130 39.896870 38.682205 1.023130 50.382816 38.682205 1.023130 58.965412 38.682205 1.023130 60.868759 38.682205 1.023130 69.052498 38.682205 1.023130 71.354050 38.682205 1.023130 79.538445 38.682205 1.023130 79.538445 38.682205 31.713131 71.354050 38.682205 0.000000 69.052498 38.682205 0.000000 60.868759 38.682205 0.000000 58.965412 38.682205 0.000000 50.382816 38.682205 0.000000 48.081261 38.682205 0.000000 50.382816 38.682205 1.023130 48.081261 38.682205 1.023130 50.382816 38.682205 0.000000 48.081261 38.682205 0.000000 60.868759 38.682205 1.023130 58.965412 38.682205 1.023130 60.868759 38.682205 0.000000 58.965412 38.682205 0.000000 71.354050 38.682205 1.023130 69.052498 38.682205 1.023130 71.354050 38.682205 0.000000 69.052498 38.682205 0.000000 71.354050 38.682205 31.713131 69.052498 38.682205 31.713131 79.538445 38.682205 31.713131 60.868759 38.682205 31.713131 58.566555 38.682205 31.713131 50.382816 38.682205 31.713131 48.081261 38.682205 31.713131 39.896870 38.682205 31.713131 79.538445 38.682205 1.023130 39.896870 38.682205 1.023130 71.354050 38.682205 32.736259 69.052498 38.682205 32.736259 60.868759 38.682205 32.736259 58.566555 38.682205 32.736259 50.382816 38.682205 32.736259 48.081261 38.682205 32.736259 96.706886 15.408760 32.736259 38.873741 17.966259 32.736259 38.873741 15.408760 32.736259 48.081261 17.966259 32.736259 50.382816 17.966259 32.736259 48.081261 38.682205 32.736259 58.566555 17.966259 32.736259 60.868759 17.966259 32.736259 58.566555 38.682205 32.736259 69.052498 17.966259 32.736259 71.354050 17.966259 32.736259 69.052498 38.682205 32.736259 94.820435 17.966259 32.736259 79.820374 40.169804 32.736259 79.538445 38.682205 32.736259 94.632042 37.364803 32.736259 111.762810 15.408760 32.736259 102.555946 7.480315 32.736259 111.762810 7.480315 32.736259 71.354050 38.682205 32.736259 60.868759 38.682205 32.736259 50.382816 38.682205 32.736259 50.382816 17.966259 32.736259 48.081261 38.682205 32.736259 50.382816 38.682205 32.736259 60.868759 17.966259 32.736259 58.566555 38.682205 32.736259 60.868759 38.682205 32.736259 71.354050 17.966259 32.736259 69.052498 38.682205 32.736259 71.354050 38.682205 32.736259 111.762810 7.480315 32.736259 102.555946 7.480315 32.736259 111.762810 15.408760 32.736259 96.706886 15.408760 32.736259 94.820435 17.966259 32.736259 94.632042 37.364803 32.736259 79.820374 40.169804 32.736259 79.538445 38.682205 32.736259 69.052498 17.966259 32.736259 58.566555 17.966259 32.736259 48.081261 17.966259 32.736259 38.873741 17.966259 32.736259 38.873741 15.408760 32.736259 60.868759 17.966259 32.736259 69.052498 17.966259 31.713131 60.868759 17.966259 31.713131 69.052498 17.966259 32.736259 69.052498 17.966259 32.736259 60.868759 17.966259 32.736259 69.052498 17.966259 31.713131 60.868759 17.966259 31.713131 69.052498 17.966259 31.713131 60.868759 38.682205 31.713131 60.868759 17.966259 31.713131 69.052498 38.682205 31.713131 69.052498 38.682205 31.713131 69.052498 17.966259 31.713131 60.868759 38.682205 31.713131 60.868759 17.966259 31.713131 69.052498 38.682205 1.023130 69.052498 17.966259 0.000000 69.052498 17.966259 1.023130 69.052498 38.682205 0.000000 69.052498 38.682205 0.000000 69.052498 38.682205 1.023130 69.052498 17.966259 0.000000 69.052498 17.966259 1.023130 69.052498 38.682205 1.023130 60.868759 17.966259 1.023130 60.868759 38.682205 1.023130 69.052498 17.966259 1.023130 69.052498 17.966259 1.023130 69.052498 38.682205 1.023130 60.868759 17.966259 1.023130 60.868759 38.682205 1.023130 60.868759 38.682205 0.000000 60.868759 17.966259 1.023130 60.868759 17.966259 0.000000 60.868759 38.682205 1.023130 60.868759 38.682205 1.023130 60.868759 38.682205 0.000000 60.868759 17.966259 1.023130 60.868759 17.966259 0.000000 50.382816 38.682205 0.000000 48.081261 17.966259 0.000000 48.081261 38.682205 0.000000 60.868759 38.682205 0.000000 58.965412 17.966259 0.000000 58.965412 38.682205 0.000000 71.354050 38.682205 0.000000 69.052498 17.966259 0.000000 69.052498 38.682205 0.000000 79.820374 40.169800 0.000000 94.820435 17.966259 0.000000 79.538445 38.682205 0.000000 94.632042 37.364803 0.000000 111.762810 15.408760 0.000000 96.706886 15.408760 0.000000 102.555946 7.480315 0.000000 111.762810 7.480315 0.000000 38.873741 15.408760 0.000000 38.873741 17.966259 0.000000 50.382816 17.966259 0.000000 60.868759 17.966259 0.000000 71.354050 17.966259 0.000000 94.820435 17.966259 0.000000 71.354050 17.966259 0.000000 96.706886 15.408760 0.000000 71.354050 38.682205 0.000000 69.052498 17.966259 0.000000 60.868759 17.966259 0.000000 60.868759 38.682205 0.000000 58.965412 17.966259 0.000000 50.382816 17.966259 0.000000 50.382816 38.682205 0.000000 48.081261 17.966259 0.000000 38.873741 15.408760 0.000000 38.873741 17.966259 0.000000 111.762810 7.480315 0.000000 111.762810 15.408760 0.000000 102.555946 7.480315 0.000000 94.632042 37.364803 0.000000 79.820374 40.169800 0.000000 79.538445 38.682205 0.000000 69.052498 38.682205 0.000000 58.965412 38.682205 0.000000 48.081261 38.682205 0.000000 58.965412 38.682205 1.023130 58.965412 17.966259 0.000000 58.965412 17.966259 1.023130 58.965412 38.682205 0.000000 58.965412 38.682205 0.000000 58.965412 38.682205 1.023130 58.965412 17.966259 0.000000 58.965412 17.966259 1.023130 58.965412 38.682205 1.023130 50.382816 17.966259 1.023130 50.382816 38.682205 1.023130 58.965412 17.966259 1.023130 58.965412 17.966259 1.023130 58.965412 38.682205 1.023130 50.382816 17.966259 1.023130 50.382816 38.682205 1.023130 50.382816 38.682205 0.000000 50.382816 17.966259 1.023130 50.382816 17.966259 0.000000 50.382816 38.682205 1.023130 50.382816 38.682205 1.023130 50.382816 38.682205 0.000000 50.382816 17.966259 1.023130 50.382816 17.966259 0.000000 48.081261 38.682205 1.023130 48.081261 17.966259 0.000000 48.081261 17.966259 1.023130 48.081261 38.682205 0.000000 48.081261 38.682205 0.000000 48.081261 38.682205 1.023130 48.081261 17.966259 0.000000 48.081261 17.966259 1.023130 48.081261 38.682205 1.023130 39.896870 17.966259 1.023130 39.896870 38.682205 1.023130 48.081261 17.966259 1.023130 48.081261 17.966259 1.023130 48.081261 38.682205 1.023130 39.896870 17.966259 1.023130 39.896870 38.682205 1.023130 39.896870 38.682205 31.713131 39.896870 17.966259 1.023130 39.896870 17.966259 31.713131 39.896870 38.682205 1.023130 39.896870 38.682205 1.023130 39.896870 38.682205 31.713131 39.896870 17.966259 1.023130 39.896870 17.966259 31.713131 48.081261 17.966259 31.713131 39.896870 38.682205 31.713131 39.896870 17.966259 31.713131 48.081261 38.682205 31.713131 48.081261 38.682205 31.713131 48.081261 17.966259 31.713131 39.896870 38.682205 31.713131 39.896870 17.966259 31.713131 48.081261 38.682205 32.736259 48.081261 17.966259 31.713131 48.081261 17.966259 32.736259 48.081261 38.682205 31.713131 48.081261 38.682205 31.713131 48.081261 38.682205 32.736259 48.081261 17.966259 31.713131 48.081261 17.966259 32.736259 50.382816 38.682205 31.713131 50.382816 17.966259 32.736259 50.382816 17.966259 31.713131 50.382816 38.682205 32.736259 50.382816 38.682205 32.736259 50.382816 38.682205 31.713131 50.382816 17.966259 32.736259 50.382816 17.966259 31.713131 58.566555 17.966259 31.713131 50.382816 38.682205 31.713131 50.382816 17.966259 31.713131 58.566555 38.682205 31.713131 58.566555 38.682205 31.713131 58.566555 17.966259 31.713131 50.382816 38.682205 31.713131 50.382816 17.966259 31.713131 58.566555 38.682205 32.736259 58.566555 17.966259 31.713131 58.566555 17.966259 32.736259 58.566555 38.682205 31.713131 58.566555 38.682205 31.713131 58.566555 38.682205 32.736259 58.566555 17.966259 31.713131 58.566555 17.966259 32.736259 69.052498 38.682205 32.736259 69.052498 17.966259 31.713131 69.052498 17.966259 32.736259 69.052498 38.682205 31.713131 69.052498 38.682205 31.713131 69.052498 38.682205 32.736259 69.052498 17.966259 31.713131 69.052498 17.966259 32.736259 71.354050 38.682205 31.713131 71.354050 17.966259 32.736259 71.354050 17.966259 31.713131 71.354050 38.682205 32.736259 71.354050 38.682205 32.736259 71.354050 38.682205 31.713131 71.354050 17.966259 32.736259 71.354050 17.966259 31.713131 94.820435 17.966259 31.713131 71.354050 38.682205 31.713131 71.354050 17.966259 31.713131 79.538445 38.682205 31.713131 79.538445 38.682205 31.713131 94.820435 17.966259 31.713131 71.354050 38.682205 31.713131 71.354050 17.966259 31.713131 79.820374 40.169804 32.736259 79.538445 38.682205 31.713131 79.538445 38.682205 32.736259 79.538445 38.682205 1.023130 79.538445 38.682205 0.000000 79.820374 40.169800 0.000000 79.820374 40.169800 0.000000 79.820374 40.169804 32.736259 79.538445 38.682205 0.000000 79.538445 38.682205 1.023130 79.538445 38.682205 31.713131 79.538445 38.682205 32.736259 79.538445 38.682205 1.023130 71.354050 17.966259 1.023130 71.354050 38.682205 1.023130 94.820435 17.966259 1.023130 94.820435 17.966259 1.023130 79.538445 38.682205 1.023130 71.354050 17.966259 1.023130 71.354050 38.682205 1.023130 71.354050 38.682205 0.000000 71.354050 17.966259 1.023130 71.354050 17.966259 0.000000 71.354050 38.682205 1.023130 71.354050 38.682205 1.023130 71.354050 38.682205 0.000000 71.354050 17.966259 1.023130 71.354050 17.966259 0.000000 71.354050 17.966259 32.736259 94.820435 17.966259 31.713131 71.354050 17.966259 31.713131 94.820435 17.966259 32.736259 94.820435 17.966259 32.736259 71.354050 17.966259 32.736259 94.820435 17.966259 31.713131 71.354050 17.966259 31.713131 50.382816 17.966259 32.736259 58.566555 17.966259 31.713131 50.382816 17.966259 31.713131 58.566555 17.966259 32.736259 58.566555 17.966259 32.736259 50.382816 17.966259 32.736259 58.566555 17.966259 31.713131 50.382816 17.966259 31.713131 38.873741 17.966259 0.000000 39.896870 17.966259 1.023130 48.081261 17.966259 0.000000 38.873741 17.966259 32.736259 39.896870 17.966259 31.713131 48.081261 17.966259 31.713131 48.081261 17.966259 32.736259 48.081261 17.966259 1.023130 39.896870 17.966259 1.023130 48.081261 17.966259 0.000000 48.081261 17.966259 1.023130 48.081261 17.966259 32.736259 38.873741 17.966259 32.736259 48.081261 17.966259 31.713131 39.896870 17.966259 31.713131 38.873741 17.966259 0.000000 38.873741 17.966259 32.736259 38.873741 15.408760 28.132500 38.873741 15.408760 32.736259 38.873741 15.408760 4.603760 38.873741 15.408760 0.000000 38.873741 17.966259 0.000000 38.873741 17.966259 0.000000 38.873741 17.966259 32.736259 38.873741 15.408760 0.000000 38.873741 15.408760 4.603760 38.873741 15.408760 28.132500 38.873741 15.408760 32.736259 96.706886 15.408760 0.000000 38.873741 15.408760 4.603760 38.873741 15.408760 0.000000 91.046875 15.408760 4.603760 96.706886 15.408760 32.736259 91.046875 15.408760 28.132500 38.873741 15.408760 32.736259 38.873741 15.408760 28.132500 91.046875 15.408760 28.132500 38.873741 15.408760 28.132500 38.873741 15.408760 32.736259 96.706886 15.408760 32.736259 91.046875 15.408760 4.603760 96.706886 15.408760 0.000000 38.873741 15.408760 4.603760 38.873741 15.408760 0.000000 96.706886 15.408760 32.736259 102.555946 7.480315 0.000000 102.555946 7.480315 32.736259 96.706886 15.408760 0.000000 96.706886 15.408760 0.000000 96.706886 15.408760 32.736259 102.555946 7.480315 0.000000 102.555946 7.480315 32.736259 111.762810 7.480315 0.000000 102.555946 7.480315 32.736259 102.555946 7.480315 0.000000 111.762810 7.480315 32.736259 111.762810 7.480315 32.736259 111.762810 7.480315 0.000000 102.555946 7.480315 32.736259 102.555946 7.480315 0.000000 111.762810 7.480315 0.000000 111.762810 15.408760 32.736259 111.762810 7.480315 32.736259 111.762810 15.408760 0.000000 111.762810 15.408760 0.000000 111.762810 7.480315 0.000000 111.762810 15.408760 32.736259 111.762810 7.480315 32.736259 111.762810 15.408760 0.000000 105.784485 23.070866 2.557500 105.784485 23.070866 30.178759 94.632042 37.364803 0.000000 97.778740 33.332047 2.557500 94.632042 37.364803 32.736259 111.762810 15.408760 32.736259 97.778740 33.332047 30.178759 97.778740 33.332047 2.557500 97.778740 33.332047 30.178759 94.632042 37.364803 32.736259 105.784485 23.070866 30.178759 111.762810 15.408760 0.000000 111.762810 15.408760 32.736259 94.632042 37.364803 0.000000 105.784485 23.070866 2.557500 79.820374 40.169804 32.736259 94.632042 37.364803 0.000000 79.820374 40.169800 0.000000 94.632042 37.364803 32.736259 94.632042 37.364803 32.736259 79.820374 40.169804 32.736259 94.632042 37.364803 0.000000 79.820374 40.169800 0.000000 79.538445 38.682205 32.736259 94.820435 17.966259 31.713131 94.820435 17.966259 32.736259 79.538445 38.682205 31.713131 79.538445 38.682205 31.713131 79.538445 38.682205 32.736259 94.820435 17.966259 31.713131 94.820435 17.966259 32.736259 60.868759 17.966259 1.023130 69.052498 17.966259 0.000000 60.868759 17.966259 0.000000 69.052498 17.966259 1.023130 69.052498 17.966259 1.023130 60.868759 17.966259 1.023130 69.052498 17.966259 0.000000 60.868759 17.966259 0.000000 71.354050 17.966259 1.023130 94.820435 17.966259 0.000000 71.354050 17.966259 0.000000 94.820435 17.966259 1.023130 94.820435 17.966259 1.023130 71.354050 17.966259 1.023130 94.820435 17.966259 0.000000 71.354050 17.966259 0.000000 79.538445 38.682205 1.023130 94.820435 17.966259 0.000000 94.820435 17.966259 1.023130 79.538445 38.682205 0.000000 79.538445 38.682205 0.000000 79.538445 38.682205 1.023130 94.820435 17.966259 0.000000 94.820435 17.966259 1.023130 50.382816 17.966259 1.023130 58.965412 17.966259 0.000000 50.382816 17.966259 0.000000 58.965412 17.966259 1.023130 58.965412 17.966259 1.023130 50.382816 17.966259 1.023130 58.965412 17.966259 0.000000 50.382816 17.966259 0.000000 "
								            />
							</IndexedFaceSet>
						</Shape>
					</Group>
				</Transform>
			</Transform>
		</Transform>
	</Scene>
</X3D>